103.6.148.14
103.9.138.254
105.16.8.246
105.16.9.14
105.16.9.22
107.14.19.118
107.14.19.138
107.14.19.86
109.105.97.10
109.105.97.124
109.105.97.125
109.105.97.127
109.105.97.133
109.105.97.135
109.105.97.137
109.105.97.138
109.105.97.14
109.105.97.140
109.105.97.141
109.105.97.145
109.105.97.18
109.105.97.73
109.105.97.82
109.105.97.86
113.197.15.109
113.197.15.111
114.31.194.101
114.31.194.111
114.31.194.173
114.31.199.181
114.31.206.141
114.31.206.145
114.31.206.173
117.103.111.130
117.103.111.201
118.143.238.14
119.161.84.28
125.62.187.113
125.62.187.117
128.164.203.213
128.241.2.101
129.250.2.121
129.250.2.133
129.250.2.20
129.250.2.22
129.250.2.220
129.250.200.114
129.250.202.133
129.250.3.147
129.250.3.249
129.250.3.25
129.250.3.254
129.250.3.4
129.250.3.6
129.250.3.81
129.250.4.36
129.250.6.207
129.250.9.25
130.117.48.113
130.117.48.62
130.117.48.69
130.117.50.250
130.117.50.82
130.152.181.121
130.152.181.148
130.152.181.190
130.152.181.74
130.206.195.1
130.206.245.93
130.94.195.250
134.222.114.205
134.222.48.185
134.222.48.22
134.222.48.26
134.222.48.33
134.222.48.35
134.222.48.65
134.222.48.92
134.222.48.94
134.222.49.17
143.56.224.2
146.57.253.10
149.14.141.42
149.14.8.210
149.6.153.2
150.101.33.11
150.101.33.13
150.101.33.147
150.101.33.149
150.101.33.176
150.101.33.188
150.101.33.199
150.101.33.68
150.101.34.42
152.179.48.122
154.54.41.146
154.54.57.154
154.54.58.186
154.54.60.174
162.248.220.254
168.209.201.61
168.209.201.65
168.209.201.93
168.209.246.1
168.209.246.3
168.209.246.65
168.209.246.66
174.127.138.235
175.41.58.41
175.41.58.54
175.41.58.98
175.41.60.6
175.41.60.70
176.67.177.149
182.79.222.237
182.79.245.22
182.79.245.26
182.79.245.57
182.79.245.62
182.79.245.66
182.79.245.81
182.79.252.6
182.79.255.14
182.79.255.18
182.79.255.30
184.105.213.101
184.105.213.102
184.105.213.114
184.105.213.117
184.105.213.118
184.105.213.17
184.105.213.174
184.105.213.217
184.105.213.225
184.105.213.230
184.105.213.241
184.105.213.25
184.105.213.26
184.105.213.41
184.105.213.42
184.105.213.86
184.105.213.93
184.105.222.129
184.105.222.153
184.105.222.26
184.105.222.29
184.105.222.30
184.105.222.49
184.105.222.50
184.105.222.93
184.105.222.97
184.105.222.98
184.105.223.106
184.105.223.166
184.105.223.189
184.105.223.193
184.105.223.205
184.105.223.210
184.105.223.214
184.105.223.218
184.105.223.226
184.105.223.242
184.105.223.254
184.105.249.213
184.105.30.13
184.105.41.69
184.105.64.102
184.105.64.106
184.105.64.109
184.105.64.110
184.105.64.113
184.105.64.114
184.105.64.118
184.105.64.126
184.105.64.129
184.105.64.130
184.105.64.134
184.105.64.137
184.105.64.138
184.105.64.2
184.105.64.46
184.105.64.49
184.105.64.54
184.105.64.6
184.105.64.66
184.105.64.70
184.105.64.86
184.105.80.10
184.105.80.101
184.105.80.105
184.105.80.106
184.105.80.113
184.105.80.114
184.105.80.117
184.105.80.130
184.105.80.146
184.105.80.150
184.105.80.193
184.105.80.22
184.105.80.29
184.105.80.6
184.105.80.86
184.105.80.93
184.105.80.94
184.105.81.102
184.105.81.109
184.105.81.125
184.105.81.165
184.105.81.170
184.105.81.174
184.105.81.210
184.105.81.254
184.105.81.26
184.105.81.29
184.105.81.33
184.105.81.41
184.105.81.49
184.105.81.70
184.105.81.82
184.105.81.97
185.84.18.2
192.69.49.254
193.1.236.1
193.1.236.161
193.1.237.161
193.1.238.245
193.1.238.246
193.1.238.249
193.1.238.250
195.2.10.162
195.2.10.170
195.2.10.178
195.2.10.18
195.2.10.245
195.2.10.65
195.2.21.133
195.2.22.214
195.2.24.165
195.2.24.177
195.2.24.210
195.2.24.217
195.2.25.133
195.2.25.134
195.2.25.197
195.2.25.209
195.2.25.230
195.2.27.249
195.2.28.161
195.2.28.166
195.2.28.178
195.2.28.186
195.2.28.30
195.2.28.49
195.2.28.50
195.2.30.142
195.2.30.150
195.2.30.189
195.2.30.202
195.2.30.21
195.2.30.246
195.2.30.34
195.2.30.37
195.2.30.49
195.2.30.93
195.2.5.42
195.2.8.46
195.2.9.238
195.22.196.103
195.22.197.19
195.22.197.193
195.22.197.241
195.22.197.45
195.22.197.93
195.22.198.63
195.22.199.187
195.22.199.189
195.22.199.191
195.22.206.144
195.22.206.146
195.22.206.148
195.22.206.150
195.22.206.164
195.22.206.184
195.22.206.188
195.22.206.190
195.22.206.192
195.22.206.194
195.22.206.196
195.22.206.198
195.22.206.200
195.22.206.202
195.22.206.92
195.22.206.96
195.22.208.117
195.22.208.201
195.22.209.217
195.22.210.104
195.22.210.123
195.22.210.192
195.22.210.203
195.22.210.207
195.22.210.53
195.22.210.55
195.22.213.218
195.22.213.233
195.22.213.52
195.22.213.54
195.22.213.56
195.22.213.73
195.22.213.79
195.22.216.149
195.22.216.227
195.22.218.125
195.22.218.127
195.22.218.195
195.22.218.233
195.22.223.165
195.229.2.123
195.229.2.233
195.229.2.235
195.229.2.239
195.229.2.241
195.229.2.243
195.229.2.247
195.229.3.145
195.229.3.147
195.229.3.201
195.229.3.203
195.229.3.205
195.229.3.207
195.229.4.221
195.229.4.223
195.229.4.225
195.229.4.227
195.229.4.231
195.229.4.233
195.229.4.235
197.149.9.4
197.149.9.7
198.206.164.101
198.206.164.115
202.147.32.102
202.147.58.138
202.147.61.157
202.158.194.121
202.158.194.146
202.158.194.162
202.158.194.171
202.158.194.177
202.40.148.34
202.40.148.38
202.40.148.46
202.40.148.50
202.65.246.162
202.84.178.10
202.84.178.14
202.84.178.146
202.84.178.150
202.84.178.153
202.84.178.6
202.84.253.22
203.116.5.202
203.118.15.182
203.118.15.185
203.118.15.230
203.118.15.234
203.16.211.229
203.16.213.158
203.16.213.190
203.16.213.65
203.160.226.65
203.160.228.217
203.160.228.230
203.160.228.50
203.208.171.118
203.208.172.174
203.208.172.234
203.208.173.138
203.208.191.141
203.77.184.246
203.78.176.109
203.78.176.65
203.78.186.218
203.78.187.182
203.78.187.30
203.78.187.82
204.188.136.1
204.232.76.74
204.255.169.2
204.26.63.113
205.185.218.5
206.108.190.36
206.108.190.4
206.108.190.66
206.108.190.74
207.172.15.132
207.172.15.148
207.172.15.212
207.172.19.86
207.88.13.205
207.88.13.209
207.88.13.57
207.88.15.78
208.113.0.101
208.113.0.110
208.113.0.117
208.113.0.46
208.74.176.201
209.124.188.132
209.197.0.210
209.197.0.33
209.197.0.37
209.197.0.54
209.197.0.56
209.197.0.89
209.197.0.90
209.197.0.94
209.197.17.10
209.197.20.32
209.197.20.33
209.197.20.42
209.197.24.146
209.197.29.33
209.197.4.4
209.51.163.209
209.51.163.233
209.51.175.37
209.51.184.229
210.23.0.119
210.23.0.165
210.23.0.175
210.23.0.235
210.7.39.5
210.7.39.9
212.119.15.106
212.27.56.37
212.27.57.14
212.27.58.222
212.47.201.130
213.130.38.66
213.136.1.106
213.136.1.82
213.140.197.37
213.140.214.19
213.144.176.48
213.144.176.65
213.144.178.75
213.144.183.14
213.144.183.141
213.144.183.251
213.144.183.3
213.155.130.141
213.155.133.187
213.155.135.215
213.155.135.81
213.155.135.83
213.155.135.85
213.155.135.87
213.155.135.89
213.248.67.118
213.248.73.210
213.248.88.90
213.248.92.138
213.248.97.234
213.248.98.94
213.46.190.106
213.46.190.186
216.113.124.150
216.113.124.154
216.113.124.54
216.113.126.214
216.113.126.230
216.218.254.57
216.66.3.37
216.66.32.5
216.66.41.113
216.66.41.125
216.66.41.173
216.66.79.42
216.66.80.201
216.66.87.146
216.66.87.147
216.86.149.58
217.239.43.154
217.239.43.162
217.239.43.166
217.239.43.170
217.239.43.174
217.239.43.186
217.239.43.190
217.239.51.102
217.239.51.106
217.239.51.110
217.239.51.86
217.239.51.94
217.71.96.34
218.189.5.14
218.189.5.46
23.15.1.1
23.2.16.1
23.48.144.1
23.67.45.1
27.50.33.214
38.104.138.122
38.112.14.126
38.88.253.233
41.188.60.194
41.188.60.195
41.188.60.214
41.188.60.215
41.188.60.243
41.216.196.24
46.17.232.13
46.20.246.218
46.20.254.133
49.255.255.25
58.229.14.198
58.229.14.9
58.229.15.78
58.229.92.194
59.128.3.70
59.128.3.74
59.144.36.118
59.144.36.122
59.144.36.126
59.144.36.5
61.14.157.134
61.14.157.90
61.14.157.98
61.14.158.59
61.95.191.5
62.115.112.150
62.115.112.152
62.115.116.225
62.115.116.227
62.115.116.233
62.115.116.235
62.115.116.237
62.115.116.239
62.115.117.223
62.115.117.225
62.115.142.183
62.115.146.147
62.115.146.227
62.115.147.143
62.115.37.86
62.115.44.10
62.154.14.198
62.154.14.206
62.216.128.1
62.216.128.14
62.216.128.186
62.216.128.198
62.216.128.246
62.216.128.62
62.216.128.81
62.216.129.174
62.216.129.225
62.216.129.237
62.216.129.241
62.216.137.149
62.216.144.118
62.216.144.122
63.218.218.106
63.218.218.110
63.218.218.122
63.218.218.126
63.218.218.138
63.218.218.142
63.218.218.146
63.218.218.150
63.218.218.154
63.218.218.158
63.218.22.246
63.218.22.70
63.218.26.42
63.245.106.187
63.245.106.208
63.245.106.210
63.245.106.212
63.245.106.89
63.245.107.101
63.245.107.103
63.245.107.109
63.245.107.213
63.245.5.161
63.245.5.225
63.245.5.67
63.245.5.79
64.124.161.17
64.125.20.118
64.125.20.234
64.125.21.217
64.125.25.49
64.125.29.1
64.125.31.198
64.125.31.85
64.71.180.153
65.19.189.177
65.50.198.133
65.50.198.135
65.50.198.16
66.109.6.135
68.1.0.242
68.1.1.13
68.1.4.133
68.142.125.98
68.142.88.198
69.28.172.41
69.28.172.6
69.28.172.86
69.28.189.138
69.28.189.145
72.246.25.1
72.52.83.9
72.52.92.10
72.52.92.114
72.52.92.117
72.52.92.13
72.52.92.158
72.52.92.185
72.52.92.242
72.52.92.30
72.52.92.37
72.52.92.42
72.52.92.46
72.52.92.53
72.52.92.54
74.40.2.174
74.40.2.178
74.40.2.82
74.40.3.170
74.40.4.142
74.40.5.122
74.40.5.126
77.109.128.10
77.109.128.133
77.109.128.15
77.109.128.189
77.109.128.197
77.109.128.227
77.109.128.250
77.109.140.149
77.109.140.253
77.109.140.255
77.109.140.31
77.109.140.49
77.109.149.90
78.152.34.10
78.152.34.155
78.152.34.167
78.152.34.177
78.152.34.185
78.152.34.186
78.152.34.199
78.152.34.58
78.152.34.61
78.152.34.72
78.152.34.98
78.152.44.13
78.152.44.157
78.152.44.253
78.152.44.85
78.152.45.147
78.152.45.219
78.152.45.71
78.152.53.48
78.152.53.61
78.152.54.165
79.140.83.1
80.239.128.142
80.239.133.30
80.239.147.158
80.77.2.242
80.91.160.158
80.91.160.206
80.91.246.7
80.91.249.201
80.91.253.219
80.91.253.54
80.91.254.207
80.94.64.133
80.94.74.57
80.94.74.60
82.112.96.78
82.197.163.49
82.197.164.161
82.197.164.251
83.167.63.146
83.167.63.245
83.217.231.35
83.217.233.2
84.116.130.165
84.116.130.174
84.116.133.154
84.116.137.41
84.116.137.49
84.116.138.102
84.116.138.210
84.116.138.218
84.116.138.90
84.235.111.171
84.235.121.29
84.235.123.226
84.235.123.31
84.53.146.1
85.95.25.102
85.95.25.122
85.95.25.149
85.95.25.157
85.95.25.17
85.95.25.22
85.95.25.222
85.95.25.250
85.95.25.26
85.95.26.1
85.95.26.114
85.95.26.118
85.95.26.13
85.95.26.185
85.95.27.109
85.95.27.137
85.95.27.150
85.95.27.33
85.95.27.37
85.95.27.6
85.95.27.78
87.245.232.138
87.245.232.246
87.245.233.114
87.245.233.166
87.245.233.186
87.245.233.222
87.245.233.245
87.245.234.70
87.245.234.94
87.245.245.179
87.245.247.51
88.134.202.193
88.134.202.27
88.134.202.45
88.134.202.47
88.81.224.209
89.221.35.129
89.221.35.141
89.221.35.145
89.221.35.147
89.221.35.161
89.221.39.65
89.221.43.113
89.221.43.115
91.194.117.118
91.194.117.120
91.196.186.225
91.196.186.253
93.186.133.32
93.186.133.62
93.186.133.8
93.186.133.9
94.102.162.179
94.102.162.242
94.102.162.81
94.126.176.27
94.126.177.66
