%!PS-Adobe-2.0 EPSF-2.0
%%Title: /home/vkotronis/Dropbox/FORTH/FORTH_WORK/imc2017/measurement-framework.dia
%%Creator: Dia v0.97.3
%%CreationDate: Tue May  9 11:04:44 2017
%%For: vkotronis
%%Orientation: Portrait
%%Magnification: 1.0000
%%BoundingBox: 0 0 1046 827
%%BeginSetup
%%EndSetup
%%EndComments
%%BeginProlog
[ /.notdef /.notdef /.notdef /.notdef /.notdef /.notdef /.notdef /.notdef /.notdef /.notdef
/.notdef /.notdef /.notdef /.notdef /.notdef /.notdef /.notdef /.notdef /.notdef /.notdef
/.notdef /.notdef /.notdef /.notdef /.notdef /.notdef /.notdef /.notdef /.notdef /.notdef
/.notdef /.notdef /space /exclam /quotedbl /numbersign /dollar /percent /ampersand /quoteright
/parenleft /parenright /asterisk /plus /comma /hyphen /period /slash /zero /one
/two /three /four /five /six /seven /eight /nine /colon /semicolon
/less /equal /greater /question /at /A /B /C /D /E
/F /G /H /I /J /K /L /M /N /O
/P /Q /R /S /T /U /V /W /X /Y
/Z /bracketleft /backslash /bracketright /asciicircum /underscore /quoteleft /a /b /c
/d /e /f /g /h /i /j /k /l /m
/n /o /p /q /r /s /t /u /v /w
/x /y /z /braceleft /bar /braceright /asciitilde /.notdef /.notdef /.notdef
/.notdef /.notdef /.notdef /.notdef /.notdef /.notdef /.notdef /.notdef /.notdef /.notdef
/.notdef /.notdef /.notdef /.notdef /.notdef /.notdef /.notdef /.notdef /.notdef /.notdef
/.notdef /.notdef /.notdef /.notdef /.notdef /.notdef /.notdef /.notdef /.notdef /.notdef
/space /exclamdown /cent /sterling /currency /yen /brokenbar /section /dieresis /copyright
/ordfeminine /guillemotleft /logicalnot /hyphen /registered /macron /degree /plusminus /twosuperior /threesuperior
/acute /mu /paragraph /periodcentered /cedilla /onesuperior /ordmasculine /guillemotright /onequarter /onehalf
/threequarters /questiondown /Agrave /Aacute /Acircumflex /Atilde /Adieresis /Aring /AE /Ccedilla
/Egrave /Eacute /Ecircumflex /Edieresis /Igrave /Iacute /Icircumflex /Idieresis /Eth /Ntilde
/Ograve /Oacute /Ocircumflex /Otilde /Odieresis /multiply /Oslash /Ugrave /Uacute /Ucircumflex
/Udieresis /Yacute /Thorn /germandbls /agrave /aacute /acircumflex /atilde /adieresis /aring
/ae /ccedilla /egrave /eacute /ecircumflex /edieresis /igrave /iacute /icircumflex /idieresis
/eth /ntilde /ograve /oacute /ocircumflex /otilde /odieresis /divide /oslash /ugrave
/uacute /ucircumflex /udieresis /yacute /thorn /ydieresis] /isolatin1encoding exch def
/cp {closepath} bind def
/c {curveto} bind def
/f {fill} bind def
/a {arc} bind def
/ef {eofill} bind def
/ex {exch} bind def
/gr {grestore} bind def
/gs {gsave} bind def
/sa {save} bind def
/rs {restore} bind def
/l {lineto} bind def
/m {moveto} bind def
/rm {rmoveto} bind def
/n {newpath} bind def
/s {stroke} bind def
/sh {show} bind def
/slc {setlinecap} bind def
/slj {setlinejoin} bind def
/slw {setlinewidth} bind def
/srgb {setrgbcolor} bind def
/rot {rotate} bind def
/sc {scale} bind def
/sd {setdash} bind def
/ff {findfont} bind def
/sf {setfont} bind def
/scf {scalefont} bind def
/sw {stringwidth pop} bind def
/tr {translate} bind def

/ellipsedict 8 dict def
ellipsedict /mtrx matrix put
/ellipse
{ ellipsedict begin
   /endangle exch def
   /startangle exch def
   /yrad exch def
   /xrad exch def
   /y exch def
   /x exch def   /savematrix mtrx currentmatrix def
   x y tr xrad yrad sc
   0 0 1 startangle endangle arc
   savematrix setmatrix
   end
} def

/mergeprocs {
dup length
3 -1 roll
dup
length
dup
5 1 roll
3 -1 roll
add
array cvx
dup
3 -1 roll
0 exch
putinterval
dup
4 2 roll
putinterval
} bind def
/dpi_x 300 def
/dpi_y 300 def
/conicto {
    /to_y exch def
    /to_x exch def
    /conic_cntrl_y exch def
    /conic_cntrl_x exch def
    currentpoint
    /p0_y exch def
    /p0_x exch def
    /p1_x p0_x conic_cntrl_x p0_x sub 2 3 div mul add def
    /p1_y p0_y conic_cntrl_y p0_y sub 2 3 div mul add def
    /p2_x p1_x to_x p0_x sub 1 3 div mul add def
    /p2_y p1_y to_y p0_y sub 1 3 div mul add def
    p1_x p1_y p2_x p2_y to_x to_y curveto
} bind def
/start_ol { gsave 1.1 dpi_x div dup scale} bind def
/end_ol { closepath fill grestore } bind def
28.346000 -28.346000 scale
-15.450000 -31.490000 translate
%%EndProlog


0.100000 slw
[] 0 sd
[] 0 sd
0 slc
0 slj
0.100000 slw
0 slc
0 slj
[] 0 sd
1.000000 1.000000 1.000000 srgb
n 20.471925 17.184425 3.703125 3.703125 0 360 ellipse f
0.000000 0.000000 0.000000 srgb
n 20.471925 17.184425 3.703125 3.703125 0 360 ellipse cp s
0 slc
0 slj
[] 0 sd
n 20.471925 17.184425 3.703125 3.703125 0 360 ellipse cp s
gsave 17.365000 16.292639 translate 0.035278 -0.035278 scale
start_ol
3788 2917 moveto
4061 2825 4319 2524 conicto
4578 2223 4839 1697 conicto
5696 0 lineto
4788 0 lineto
3985 1593 lineto
3674 2217 3382 2420 conicto
3091 2624 2587 2624 conicto
1664 2624 lineto
1664 0 lineto
832 0 lineto
832 6208 lineto
2730 6208 lineto
3805 6208 4334 5764 conicto
4864 5320 4864 4423 conicto
4864 3838 4588 3452 conicto
4313 3066 3788 2917 conicto
1664 5504 moveto
1664 3328 lineto
2730 3328 lineto
3343 3328 3655 3605 conicto
3968 3882 3968 4420 conicto
3968 4958 3655 5231 conicto
3343 5504 2730 5504 conicto
1664 5504 lineto
end_ol grestore 
gsave 18.149266 16.292639 translate 0.035278 -0.035278 scale
start_ol
832 6208 moveto
1664 6208 lineto
1664 0 lineto
832 0 lineto
832 6208 lineto
end_ol grestore 
gsave 18.481451 16.292639 translate 0.035278 -0.035278 scale
start_ol
1664 5504 moveto
1664 3200 lineto
2730 3200 lineto
3322 3200 3645 3500 conicto
3968 3800 3968 4354 conicto
3968 4904 3645 5204 conicto
3322 5504 2730 5504 conicto
1664 5504 lineto
832 6208 moveto
2730 6208 lineto
3784 6208 4324 5736 conicto
4864 5264 4864 4354 conicto
4864 3435 4324 2965 conicto
3784 2496 2730 2496 conicto
1664 2496 lineto
1664 0 lineto
832 0 lineto
832 6208 lineto
end_ol grestore 
gsave 19.163307 16.292639 translate 0.035278 -0.035278 scale
start_ol
832 6208 moveto
4736 6208 lineto
4736 5504 lineto
1664 5504 lineto
1664 3648 lineto
4608 3648 lineto
4608 2944 lineto
1664 2944 lineto
1664 704 lineto
4800 704 lineto
4800 0 lineto
832 0 lineto
832 6208 lineto
end_ol grestore 
gsave 19.877632 16.292639 translate 0.035278 -0.035278 scale
start_ol
end_ol grestore 
gsave 20.237292 16.292639 translate 0.035278 -0.035278 scale
start_ol
2912 5383 moveto
1771 2304 lineto
4057 2304 lineto
2912 5383 lineto
2437 6208 moveto
3391 6208 lineto
5760 0 lineto
4886 0 lineto
4319 1600 lineto
1517 1600 lineto
951 0 lineto
64 0 lineto
2437 6208 lineto
end_ol grestore 
gsave 20.921645 16.292639 translate 0.035278 -0.035278 scale
start_ol
0 6208 moveto
5184 6208 lineto
5184 5504 lineto
3008 5504 lineto
3008 0 lineto
2176 0 lineto
2176 5504 lineto
0 5504 lineto
0 6208 lineto
end_ol grestore 
gsave 21.611000 16.292639 translate 0.035278 -0.035278 scale
start_ol
832 6208 moveto
1664 6208 lineto
1664 704 lineto
4672 704 lineto
4672 0 lineto
832 0 lineto
832 6208 lineto
end_ol grestore 
gsave 22.265381 16.292639 translate 0.035278 -0.035278 scale
start_ol
2912 5383 moveto
1771 2304 lineto
4057 2304 lineto
2912 5383 lineto
2437 6208 moveto
3391 6208 lineto
5760 0 lineto
4886 0 lineto
4319 1600 lineto
1517 1600 lineto
951 0 lineto
64 0 lineto
2437 6208 lineto
end_ol grestore 
gsave 23.037154 16.292639 translate 0.035278 -0.035278 scale
start_ol
4544 6016 moveto
4544 5184 lineto
4078 5410 3664 5521 conicto
3251 5632 2866 5632 conicto
2197 5632 1834 5367 conicto
1472 5103 1472 4614 conicto
1472 4205 1711 3996 conicto
1950 3787 2617 3659 conicto
3108 3555 lineto
4041 3376 4484 2923 conicto
4928 2471 4928 1711 conicto
4928 806 4322 339 conicto
3716 -128 2546 -128 conicto
2104 -128 1606 -31 conicto
1109 66 576 256 conicto
576 1152 lineto
1086 866 1575 721 conicto
2064 576 2536 576 conicto
3253 576 3642 858 conicto
4032 1140 4032 1662 conicto
4032 2118 3761 2375 conicto
3490 2632 2871 2760 conicto
2376 2859 lineto
1426 3047 1001 3447 conicto
576 3847 576 4560 conicto
576 5385 1152 5860 conicto
1728 6336 2740 6336 conicto
3173 6336 3623 6256 conicto
4073 6176 4544 6016 conicto
end_ol grestore 
gsave 17.423750 17.703750 translate 0.035278 -0.035278 scale
start_ol
832 6208 moveto
4736 6208 lineto
4736 5504 lineto
1664 5504 lineto
1664 3648 lineto
4608 3648 lineto
4608 2944 lineto
1664 2944 lineto
1664 704 lineto
4800 704 lineto
4800 0 lineto
832 0 lineto
832 6208 lineto
end_ol grestore 
gsave 18.138075 17.703750 translate 0.035278 -0.035278 scale
start_ol
832 6208 moveto
1974 6208 lineto
4672 1015 lineto
4672 6208 lineto
5504 6208 lineto
5504 0 lineto
4362 0 lineto
1664 5193 lineto
1664 0 lineto
832 0 lineto
832 6208 lineto
end_ol grestore 
gsave 18.982286 17.703750 translate 0.035278 -0.035278 scale
start_ol
1664 5504 moveto
1664 704 lineto
2686 704 lineto
3981 704 4582 1283 conicto
5184 1862 5184 3110 conicto
5184 4351 4582 4927 conicto
3981 5504 2686 5504 conicto
1664 5504 lineto
832 6208 moveto
2557 6208 lineto
4377 6208 5228 5457 conicto
6080 4707 6080 3110 conicto
6080 1505 5224 752 conicto
4369 0 2557 0 conicto
832 0 lineto
832 6208 lineto
end_ol grestore 
gsave 19.851467 17.703750 translate 0.035278 -0.035278 scale
start_ol
448 2688 moveto
2688 2688 lineto
2688 1984 lineto
448 1984 lineto
448 2688 lineto
end_ol grestore 
gsave 20.258587 17.703750 translate 0.035278 -0.035278 scale
start_ol
1664 5504 moveto
1664 3200 lineto
2730 3200 lineto
3322 3200 3645 3500 conicto
3968 3800 3968 4354 conicto
3968 4904 3645 5204 conicto
3322 5504 2730 5504 conicto
1664 5504 lineto
832 6208 moveto
2730 6208 lineto
3784 6208 4324 5736 conicto
4864 5264 4864 4354 conicto
4864 3435 4324 2965 conicto
3784 2496 2730 2496 conicto
1664 2496 lineto
1664 0 lineto
832 0 lineto
832 6208 lineto
end_ol grestore 
gsave 20.940443 17.703750 translate 0.035278 -0.035278 scale
start_ol
3332 5632 moveto
2419 5632 1881 4953 conicto
1344 4274 1344 3102 conicto
1344 1934 1881 1255 conicto
2419 576 3332 576 conicto
4245 576 4778 1255 conicto
5312 1934 5312 3102 conicto
5312 4274 4778 4953 conicto
4245 5632 3332 5632 conicto
3332 6336 moveto
4641 6336 5424 5457 conicto
6208 4579 6208 3102 conicto
6208 1629 5424 750 conicto
4641 -128 3332 -128 conicto
2019 -128 1233 748 conicto
448 1625 448 3102 conicto
448 4579 1233 5457 conicto
2019 6336 3332 6336 conicto
end_ol grestore 
gsave 21.829608 17.703750 translate 0.035278 -0.035278 scale
start_ol
832 6208 moveto
1664 6208 lineto
1664 0 lineto
832 0 lineto
832 6208 lineto
end_ol grestore 
gsave 22.161793 17.703750 translate 0.035278 -0.035278 scale
start_ol
832 6208 moveto
1974 6208 lineto
4672 1015 lineto
4672 6208 lineto
5504 6208 lineto
5504 0 lineto
4362 0 lineto
1664 5193 lineto
1664 0 lineto
832 0 lineto
832 6208 lineto
end_ol grestore 
gsave 23.006004 17.703750 translate 0.035278 -0.035278 scale
start_ol
0 6208 moveto
5184 6208 lineto
5184 5504 lineto
3008 5504 lineto
3008 0 lineto
2176 0 lineto
2176 5504 lineto
0 5504 lineto
0 6208 lineto
end_ol grestore 
gsave 19.008750 19.114861 translate 0.035278 -0.035278 scale
start_ol
2624 6464 moveto
2072 5504 1804 4564 conicto
1536 3625 1536 2660 conicto
1536 1696 1806 750 conicto
2076 -196 2624 -1152 conicto
1965 -1152 lineto
1332 -171 1018 777 conicto
704 1725 704 2660 conicto
704 3591 1016 4535 conicto
1328 5479 1965 6464 conicto
2624 6464 lineto
end_ol grestore 
gsave 19.448339 19.114861 translate 0.035278 -0.035278 scale
start_ol
3788 2917 moveto
4061 2825 4319 2524 conicto
4578 2223 4839 1697 conicto
5696 0 lineto
4788 0 lineto
3985 1593 lineto
3674 2217 3382 2420 conicto
3091 2624 2587 2624 conicto
1664 2624 lineto
1664 0 lineto
832 0 lineto
832 6208 lineto
2730 6208 lineto
3805 6208 4334 5764 conicto
4864 5320 4864 4423 conicto
4864 3838 4588 3452 conicto
4313 3066 3788 2917 conicto
1664 5504 moveto
1664 3328 lineto
2730 3328 lineto
3343 3328 3655 3605 conicto
3968 3882 3968 4420 conicto
3968 4958 3655 5231 conicto
3343 5504 2730 5504 conicto
1664 5504 lineto
end_ol grestore 
gsave 20.187642 19.114861 translate 0.035278 -0.035278 scale
start_ol
2912 5383 moveto
1771 2304 lineto
4057 2304 lineto
2912 5383 lineto
2437 6208 moveto
3391 6208 lineto
5760 0 lineto
4886 0 lineto
4319 1600 lineto
1517 1600 lineto
951 0 lineto
64 0 lineto
2437 6208 lineto
end_ol grestore 
gsave 20.959415 19.114861 translate 0.035278 -0.035278 scale
start_ol
832 6208 moveto
4736 6208 lineto
4736 5504 lineto
1664 5504 lineto
1664 3648 lineto
4608 3648 lineto
4608 2944 lineto
1664 2944 lineto
1664 704 lineto
4800 704 lineto
4800 0 lineto
832 0 lineto
832 6208 lineto
end_ol grestore 
gsave 21.673741 19.114861 translate 0.035278 -0.035278 scale
start_ol
704 6464 moveto
1363 6464 lineto
1996 5479 2310 4535 conicto
2624 3591 2624 2660 conicto
2624 1725 2310 777 conicto
1996 -171 1363 -1152 conicto
704 -1152 lineto
1252 -196 1522 750 conicto
1792 1696 1792 2660 conicto
1792 3625 1522 4564 conicto
1252 5504 704 6464 conicto
end_ol grestore 
0.100000 slw
[] 0 sd
[] 0 sd
0 slc
0 slj
0.100000 slw
0 slc
0 slj
[] 0 sd
1.000000 1.000000 1.000000 srgb
n 48.517500 17.332500 3.775000 3.775000 0 360 ellipse f
0.000000 0.000000 0.000000 srgb
n 48.517500 17.332500 3.775000 3.775000 0 360 ellipse cp s
0 slc
0 slj
[] 0 sd
n 48.517500 17.332500 3.775000 3.775000 0 360 ellipse cp s
0.100000 slw
[] 0 sd
[] 0 sd
0 slc
0 slj
0.100000 slw
0 slc
0 slj
[] 0 sd
1.000000 1.000000 1.000000 srgb
n 33.892500 12.072500 3.412500 3.412500 0 360 ellipse f
0.000000 0.000000 0.000000 srgb
n 33.892500 12.072500 3.412500 3.412500 0 360 ellipse cp s
0 slc
0 slj
[] 0 sd
n 33.892500 12.072500 3.412500 3.412500 0 360 ellipse cp s
gsave 32.312500 11.052639 translate 0.035278 -0.035278 scale
start_ol
5440 5760 moveto
5440 4864 lineto
5018 5250 4541 5441 conicto
4064 5632 3526 5632 conicto
2468 5632 1906 4982 conicto
1344 4332 1344 3102 conicto
1344 1876 1906 1226 conicto
2468 576 3526 576 conicto
4064 576 4541 767 conicto
5018 958 5440 1344 conicto
5440 448 lineto
5001 160 4509 16 conicto
4018 -128 3471 -128 conicto
2065 -128 1256 738 conicto
448 1604 448 3102 conicto
448 4604 1256 5470 conicto
2065 6336 3471 6336 conicto
4026 6336 4517 6192 conicto
5009 6048 5440 5760 conicto
end_ol grestore 
gsave 33.101760 11.052639 translate 0.035278 -0.035278 scale
start_ol
3332 5632 moveto
2419 5632 1881 4953 conicto
1344 4274 1344 3102 conicto
1344 1934 1881 1255 conicto
2419 576 3332 576 conicto
4245 576 4778 1255 conicto
5312 1934 5312 3102 conicto
5312 4274 4778 4953 conicto
4245 5632 3332 5632 conicto
3332 6336 moveto
4641 6336 5424 5457 conicto
6208 4579 6208 3102 conicto
6208 1629 5424 750 conicto
4641 -128 3332 -128 conicto
2019 -128 1233 748 conicto
448 1625 448 3102 conicto
448 4579 1233 5457 conicto
2019 6336 3332 6336 conicto
end_ol grestore 
gsave 33.990926 11.052639 translate 0.035278 -0.035278 scale
start_ol
832 6208 moveto
1664 6208 lineto
1664 704 lineto
4672 704 lineto
4672 0 lineto
832 0 lineto
832 6208 lineto
end_ol grestore 
gsave 34.580368 11.052639 translate 0.035278 -0.035278 scale
start_ol
3332 5632 moveto
2419 5632 1881 4953 conicto
1344 4274 1344 3102 conicto
1344 1934 1881 1255 conicto
2419 576 3332 576 conicto
4245 576 4778 1255 conicto
5312 1934 5312 3102 conicto
5312 4274 4778 4953 conicto
4245 5632 3332 5632 conicto
3332 6336 moveto
4641 6336 5424 5457 conicto
6208 4579 6208 3102 conicto
6208 1629 5424 750 conicto
4641 -128 3332 -128 conicto
2019 -128 1233 748 conicto
448 1625 448 3102 conicto
448 4579 1233 5457 conicto
2019 6336 3332 6336 conicto
end_ol grestore 
gsave 32.127500 12.463750 translate 0.035278 -0.035278 scale
start_ol
3788 2917 moveto
4061 2825 4319 2524 conicto
4578 2223 4839 1697 conicto
5696 0 lineto
4788 0 lineto
3985 1593 lineto
3674 2217 3382 2420 conicto
3091 2624 2587 2624 conicto
1664 2624 lineto
1664 0 lineto
832 0 lineto
832 6208 lineto
2730 6208 lineto
3805 6208 4334 5764 conicto
4864 5320 4864 4423 conicto
4864 3838 4588 3452 conicto
4313 3066 3788 2917 conicto
1664 5504 moveto
1664 3328 lineto
2730 3328 lineto
3343 3328 3655 3605 conicto
3968 3882 3968 4420 conicto
3968 4958 3655 5231 conicto
3343 5504 2730 5504 conicto
1664 5504 lineto
end_ol grestore 
gsave 32.911766 12.463750 translate 0.035278 -0.035278 scale
start_ol
832 6208 moveto
4736 6208 lineto
4736 5504 lineto
1664 5504 lineto
1664 3648 lineto
4608 3648 lineto
4608 2944 lineto
1664 2944 lineto
1664 704 lineto
4800 704 lineto
4800 0 lineto
832 0 lineto
832 6208 lineto
end_ol grestore 
gsave 33.626092 12.463750 translate 0.035278 -0.035278 scale
start_ol
832 6208 moveto
1664 6208 lineto
1664 704 lineto
4672 704 lineto
4672 0 lineto
832 0 lineto
832 6208 lineto
end_ol grestore 
gsave 34.280472 12.463750 translate 0.035278 -0.035278 scale
start_ol
2912 5383 moveto
1771 2304 lineto
4057 2304 lineto
2912 5383 lineto
2437 6208 moveto
3391 6208 lineto
5760 0 lineto
4886 0 lineto
4319 1600 lineto
1517 1600 lineto
951 0 lineto
64 0 lineto
2437 6208 lineto
end_ol grestore 
gsave 34.964826 12.463750 translate 0.035278 -0.035278 scale
start_ol
0 6208 moveto
893 6208 lineto
2598 3655 lineto
4290 6208 lineto
5184 6208 lineto
3008 2956 lineto
3008 0 lineto
2176 0 lineto
2176 2956 lineto
0 6208 lineto
end_ol grestore 
gsave 32.220000 13.874861 translate 0.035278 -0.035278 scale
start_ol
2624 6464 moveto
2072 5504 1804 4564 conicto
1536 3625 1536 2660 conicto
1536 1696 1806 750 conicto
2076 -196 2624 -1152 conicto
1965 -1152 lineto
1332 -171 1018 777 conicto
704 1725 704 2660 conicto
704 3591 1016 4535 conicto
1328 5479 1965 6464 conicto
2624 6464 lineto
end_ol grestore 
gsave 32.659589 13.874861 translate 0.035278 -0.035278 scale
start_ol
5440 5760 moveto
5440 4864 lineto
5018 5250 4541 5441 conicto
4064 5632 3526 5632 conicto
2468 5632 1906 4982 conicto
1344 4332 1344 3102 conicto
1344 1876 1906 1226 conicto
2468 576 3526 576 conicto
4064 576 4541 767 conicto
5018 958 5440 1344 conicto
5440 448 lineto
5001 160 4509 16 conicto
4018 -128 3471 -128 conicto
2065 -128 1256 738 conicto
448 1604 448 3102 conicto
448 4604 1256 5470 conicto
2065 6336 3471 6336 conicto
4026 6336 4517 6192 conicto
5009 6048 5440 5760 conicto
end_ol grestore 
gsave 33.448849 13.874861 translate 0.035278 -0.035278 scale
start_ol
3332 5632 moveto
2419 5632 1881 4953 conicto
1344 4274 1344 3102 conicto
1344 1934 1881 1255 conicto
2419 576 3332 576 conicto
4245 576 4778 1255 conicto
5312 1934 5312 3102 conicto
5312 4274 4778 4953 conicto
4245 5632 3332 5632 conicto
3332 6336 moveto
4641 6336 5424 5457 conicto
6208 4579 6208 3102 conicto
6208 1629 5424 750 conicto
4641 -128 3332 -128 conicto
2019 -128 1233 748 conicto
448 1625 448 3102 conicto
448 4579 1233 5457 conicto
2019 6336 3332 6336 conicto
end_ol grestore 
gsave 34.338014 13.874861 translate 0.035278 -0.035278 scale
start_ol
3788 2917 moveto
4061 2825 4319 2524 conicto
4578 2223 4839 1697 conicto
5696 0 lineto
4788 0 lineto
3985 1593 lineto
3674 2217 3382 2420 conicto
3091 2624 2587 2624 conicto
1664 2624 lineto
1664 0 lineto
832 0 lineto
832 6208 lineto
2730 6208 lineto
3805 6208 4334 5764 conicto
4864 5320 4864 4423 conicto
4864 3838 4588 3452 conicto
4313 3066 3788 2917 conicto
1664 5504 moveto
1664 3328 lineto
2730 3328 lineto
3343 3328 3655 3605 conicto
3968 3882 3968 4420 conicto
3968 4958 3655 5231 conicto
3343 5504 2730 5504 conicto
1664 5504 lineto
end_ol grestore 
gsave 35.122281 13.874861 translate 0.035278 -0.035278 scale
start_ol
704 6464 moveto
1363 6464 lineto
1996 5479 2310 4535 conicto
2624 3591 2624 2660 conicto
2624 1725 2310 777 conicto
1996 -171 1363 -1152 conicto
704 -1152 lineto
1252 -196 1522 750 conicto
1792 1696 1792 2660 conicto
1792 3625 1522 4564 conicto
1252 5504 704 6464 conicto
end_ol grestore 
0.100000 slw
[] 0 sd
[] 0 sd
0 slc
0 slj
0.100000 slw
0 slc
0 slj
[] 0 sd
1.000000 1.000000 1.000000 srgb
n 33.991250 19.906250 3.801250 3.801250 0 360 ellipse f
0.000000 0.000000 0.000000 srgb
n 33.991250 19.906250 3.801250 3.801250 0 360 ellipse cp s
0 slc
0 slj
[] 0 sd
n 33.991250 19.906250 3.801250 3.801250 0 360 ellipse cp s
gsave 30.710050 18.886339 translate 0.035278 -0.035278 scale
start_ol
1664 5504 moveto
1664 3200 lineto
2730 3200 lineto
3322 3200 3645 3500 conicto
3968 3800 3968 4354 conicto
3968 4904 3645 5204 conicto
3322 5504 2730 5504 conicto
1664 5504 lineto
832 6208 moveto
2730 6208 lineto
3784 6208 4324 5736 conicto
4864 5264 4864 4354 conicto
4864 3435 4324 2965 conicto
3784 2496 2730 2496 conicto
1664 2496 lineto
1664 0 lineto
832 0 lineto
832 6208 lineto
end_ol grestore 
gsave 31.391906 18.886339 translate 0.035278 -0.035278 scale
start_ol
832 6208 moveto
1664 6208 lineto
1664 704 lineto
4672 704 lineto
4672 0 lineto
832 0 lineto
832 6208 lineto
end_ol grestore 
gsave 32.046287 18.886339 translate 0.035278 -0.035278 scale
start_ol
2912 5383 moveto
1771 2304 lineto
4057 2304 lineto
2912 5383 lineto
2437 6208 moveto
3391 6208 lineto
5760 0 lineto
4886 0 lineto
4319 1600 lineto
1517 1600 lineto
951 0 lineto
64 0 lineto
2437 6208 lineto
end_ol grestore 
gsave 32.818060 18.886339 translate 0.035278 -0.035278 scale
start_ol
832 6208 moveto
1974 6208 lineto
4672 1015 lineto
4672 6208 lineto
5504 6208 lineto
5504 0 lineto
4362 0 lineto
1664 5193 lineto
1664 0 lineto
832 0 lineto
832 6208 lineto
end_ol grestore 
gsave 33.662271 18.886339 translate 0.035278 -0.035278 scale
start_ol
832 6208 moveto
4736 6208 lineto
4736 5504 lineto
1664 5504 lineto
1664 3648 lineto
4608 3648 lineto
4608 2944 lineto
1664 2944 lineto
1664 704 lineto
4800 704 lineto
4800 0 lineto
832 0 lineto
832 6208 lineto
end_ol grestore 
gsave 34.376596 18.886339 translate 0.035278 -0.035278 scale
start_ol
0 6208 moveto
5184 6208 lineto
5184 5504 lineto
3008 5504 lineto
3008 0 lineto
2176 0 lineto
2176 5504 lineto
0 5504 lineto
0 6208 lineto
end_ol grestore 
gsave 35.065952 18.886339 translate 0.035278 -0.035278 scale
start_ol
832 6208 moveto
1664 6208 lineto
1664 704 lineto
4672 704 lineto
4672 0 lineto
832 0 lineto
832 6208 lineto
end_ol grestore 
gsave 35.720332 18.886339 translate 0.035278 -0.035278 scale
start_ol
2912 5383 moveto
1771 2304 lineto
4057 2304 lineto
2912 5383 lineto
2437 6208 moveto
3391 6208 lineto
5760 0 lineto
4886 0 lineto
4319 1600 lineto
1517 1600 lineto
951 0 lineto
64 0 lineto
2437 6208 lineto
end_ol grestore 
gsave 36.492105 18.886339 translate 0.035278 -0.035278 scale
start_ol
1664 2944 moveto
1664 704 lineto
3030 704 lineto
3703 704 4027 980 conicto
4352 1257 4352 1826 conicto
4352 2399 4027 2671 conicto
3703 2944 3030 2944 conicto
1664 2944 lineto
1664 5504 moveto
1664 3648 lineto
2925 3648 lineto
3549 3648 3854 3877 conicto
4160 4106 4160 4576 conicto
4160 5042 3854 5273 conicto
3549 5504 2925 5504 conicto
1664 5504 lineto
832 6208 moveto
2988 6208 lineto
3950 6208 4471 5807 conicto
4992 5407 4992 4669 conicto
4992 4098 4728 3760 conicto
4464 3422 3953 3339 conicto
4568 3206 4908 2785 conicto
5248 2364 5248 1734 conicto
5248 904 4682 452 conicto
4116 0 3072 0 conicto
832 0 lineto
832 6208 lineto
end_ol grestore 
gsave 32.226300 20.297450 translate 0.035278 -0.035278 scale
start_ol
3788 2917 moveto
4061 2825 4319 2524 conicto
4578 2223 4839 1697 conicto
5696 0 lineto
4788 0 lineto
3985 1593 lineto
3674 2217 3382 2420 conicto
3091 2624 2587 2624 conicto
1664 2624 lineto
1664 0 lineto
832 0 lineto
832 6208 lineto
2730 6208 lineto
3805 6208 4334 5764 conicto
4864 5320 4864 4423 conicto
4864 3838 4588 3452 conicto
4313 3066 3788 2917 conicto
1664 5504 moveto
1664 3328 lineto
2730 3328 lineto
3343 3328 3655 3605 conicto
3968 3882 3968 4420 conicto
3968 4958 3655 5231 conicto
3343 5504 2730 5504 conicto
1664 5504 lineto
end_ol grestore 
gsave 33.010566 20.297450 translate 0.035278 -0.035278 scale
start_ol
832 6208 moveto
4736 6208 lineto
4736 5504 lineto
1664 5504 lineto
1664 3648 lineto
4608 3648 lineto
4608 2944 lineto
1664 2944 lineto
1664 704 lineto
4800 704 lineto
4800 0 lineto
832 0 lineto
832 6208 lineto
end_ol grestore 
gsave 33.724892 20.297450 translate 0.035278 -0.035278 scale
start_ol
832 6208 moveto
1664 6208 lineto
1664 704 lineto
4672 704 lineto
4672 0 lineto
832 0 lineto
832 6208 lineto
end_ol grestore 
gsave 34.379272 20.297450 translate 0.035278 -0.035278 scale
start_ol
2912 5383 moveto
1771 2304 lineto
4057 2304 lineto
2912 5383 lineto
2437 6208 moveto
3391 6208 lineto
5760 0 lineto
4886 0 lineto
4319 1600 lineto
1517 1600 lineto
951 0 lineto
64 0 lineto
2437 6208 lineto
end_ol grestore 
gsave 35.063626 20.297450 translate 0.035278 -0.035278 scale
start_ol
0 6208 moveto
893 6208 lineto
2598 3655 lineto
4290 6208 lineto
5184 6208 lineto
3008 2956 lineto
3008 0 lineto
2176 0 lineto
2176 2956 lineto
0 6208 lineto
end_ol grestore 
gsave 32.502550 21.708561 translate 0.035278 -0.035278 scale
start_ol
2624 6464 moveto
2072 5504 1804 4564 conicto
1536 3625 1536 2660 conicto
1536 1696 1806 750 conicto
2076 -196 2624 -1152 conicto
1965 -1152 lineto
1332 -171 1018 777 conicto
704 1725 704 2660 conicto
704 3591 1016 4535 conicto
1328 5479 1965 6464 conicto
2624 6464 lineto
end_ol grestore 
gsave 32.942139 21.708561 translate 0.035278 -0.035278 scale
start_ol
1664 5504 moveto
1664 3200 lineto
2730 3200 lineto
3322 3200 3645 3500 conicto
3968 3800 3968 4354 conicto
3968 4904 3645 5204 conicto
3322 5504 2730 5504 conicto
1664 5504 lineto
832 6208 moveto
2730 6208 lineto
3784 6208 4324 5736 conicto
4864 5264 4864 4354 conicto
4864 3435 4324 2965 conicto
3784 2496 2730 2496 conicto
1664 2496 lineto
1664 0 lineto
832 0 lineto
832 6208 lineto
end_ol grestore 
gsave 33.623995 21.708561 translate 0.035278 -0.035278 scale
start_ol
832 6208 moveto
1664 6208 lineto
1664 704 lineto
4672 704 lineto
4672 0 lineto
832 0 lineto
832 6208 lineto
end_ol grestore 
gsave 34.253405 21.708561 translate 0.035278 -0.035278 scale
start_ol
3788 2917 moveto
4061 2825 4319 2524 conicto
4578 2223 4839 1697 conicto
5696 0 lineto
4788 0 lineto
3985 1593 lineto
3674 2217 3382 2420 conicto
3091 2624 2587 2624 conicto
1664 2624 lineto
1664 0 lineto
832 0 lineto
832 6208 lineto
2730 6208 lineto
3805 6208 4334 5764 conicto
4864 5320 4864 4423 conicto
4864 3838 4588 3452 conicto
4313 3066 3788 2917 conicto
1664 5504 moveto
1664 3328 lineto
2730 3328 lineto
3343 3328 3655 3605 conicto
3968 3882 3968 4420 conicto
3968 4958 3655 5231 conicto
3343 5504 2730 5504 conicto
1664 5504 lineto
end_ol grestore 
gsave 35.037672 21.708561 translate 0.035278 -0.035278 scale
start_ol
704 6464 moveto
1363 6464 lineto
1996 5479 2310 4535 conicto
2624 3591 2624 2660 conicto
2624 1725 2310 777 conicto
1996 -171 1363 -1152 conicto
704 -1152 lineto
1252 -196 1522 750 conicto
1792 1696 1792 2660 conicto
1792 3625 1522 4564 conicto
1252 5504 704 6464 conicto
end_ol grestore 
0.100000 slw
[] 0 sd
[] 0 sd
0 slc
0 slj
0.100000 slw
0 slc
0 slj
[] 0 sd
1.000000 1.000000 1.000000 srgb
n 34.045000 27.775000 3.665000 3.665000 0 360 ellipse f
0.000000 0.000000 0.000000 srgb
n 34.045000 27.775000 3.665000 3.665000 0 360 ellipse cp s
0 slc
0 slj
[] 0 sd
n 34.045000 27.775000 3.665000 3.665000 0 360 ellipse cp s
gsave 30.795000 26.952639 translate 0.035278 -0.035278 scale
start_ol
3788 2917 moveto
4061 2825 4319 2524 conicto
4578 2223 4839 1697 conicto
5696 0 lineto
4788 0 lineto
3985 1593 lineto
3674 2217 3382 2420 conicto
3091 2624 2587 2624 conicto
1664 2624 lineto
1664 0 lineto
832 0 lineto
832 6208 lineto
2730 6208 lineto
3805 6208 4334 5764 conicto
4864 5320 4864 4423 conicto
4864 3838 4588 3452 conicto
4313 3066 3788 2917 conicto
1664 5504 moveto
1664 3328 lineto
2730 3328 lineto
3343 3328 3655 3605 conicto
3968 3882 3968 4420 conicto
3968 4958 3655 5231 conicto
3343 5504 2730 5504 conicto
1664 5504 lineto
end_ol grestore 
gsave 31.579266 26.952639 translate 0.035278 -0.035278 scale
start_ol
832 6208 moveto
1664 6208 lineto
1664 0 lineto
832 0 lineto
832 6208 lineto
end_ol grestore 
gsave 31.911451 26.952639 translate 0.035278 -0.035278 scale
start_ol
1664 5504 moveto
1664 3200 lineto
2730 3200 lineto
3322 3200 3645 3500 conicto
3968 3800 3968 4354 conicto
3968 4904 3645 5204 conicto
3322 5504 2730 5504 conicto
1664 5504 lineto
832 6208 moveto
2730 6208 lineto
3784 6208 4324 5736 conicto
4864 5264 4864 4354 conicto
4864 3435 4324 2965 conicto
3784 2496 2730 2496 conicto
1664 2496 lineto
1664 0 lineto
832 0 lineto
832 6208 lineto
end_ol grestore 
gsave 32.593307 26.952639 translate 0.035278 -0.035278 scale
start_ol
832 6208 moveto
4736 6208 lineto
4736 5504 lineto
1664 5504 lineto
1664 3648 lineto
4608 3648 lineto
4608 2944 lineto
1664 2944 lineto
1664 704 lineto
4800 704 lineto
4800 0 lineto
832 0 lineto
832 6208 lineto
end_ol grestore 
gsave 33.307632 26.952639 translate 0.035278 -0.035278 scale
start_ol
end_ol grestore 
gsave 33.667292 26.952639 translate 0.035278 -0.035278 scale
start_ol
2912 5383 moveto
1771 2304 lineto
4057 2304 lineto
2912 5383 lineto
2437 6208 moveto
3391 6208 lineto
5760 0 lineto
4886 0 lineto
4319 1600 lineto
1517 1600 lineto
951 0 lineto
64 0 lineto
2437 6208 lineto
end_ol grestore 
gsave 34.351645 26.952639 translate 0.035278 -0.035278 scale
start_ol
0 6208 moveto
5184 6208 lineto
5184 5504 lineto
3008 5504 lineto
3008 0 lineto
2176 0 lineto
2176 5504 lineto
0 5504 lineto
0 6208 lineto
end_ol grestore 
gsave 35.041000 26.952639 translate 0.035278 -0.035278 scale
start_ol
832 6208 moveto
1664 6208 lineto
1664 704 lineto
4672 704 lineto
4672 0 lineto
832 0 lineto
832 6208 lineto
end_ol grestore 
gsave 35.695381 26.952639 translate 0.035278 -0.035278 scale
start_ol
2912 5383 moveto
1771 2304 lineto
4057 2304 lineto
2912 5383 lineto
2437 6208 moveto
3391 6208 lineto
5760 0 lineto
4886 0 lineto
4319 1600 lineto
1517 1600 lineto
951 0 lineto
64 0 lineto
2437 6208 lineto
end_ol grestore 
gsave 36.467154 26.952639 translate 0.035278 -0.035278 scale
start_ol
4544 6016 moveto
4544 5184 lineto
4078 5410 3664 5521 conicto
3251 5632 2866 5632 conicto
2197 5632 1834 5367 conicto
1472 5103 1472 4614 conicto
1472 4205 1711 3996 conicto
1950 3787 2617 3659 conicto
3108 3555 lineto
4041 3376 4484 2923 conicto
4928 2471 4928 1711 conicto
4928 806 4322 339 conicto
3716 -128 2546 -128 conicto
2104 -128 1606 -31 conicto
1109 66 576 256 conicto
576 1152 lineto
1086 866 1575 721 conicto
2064 576 2536 576 conicto
3253 576 3642 858 conicto
4032 1140 4032 1662 conicto
4032 2118 3761 2375 conicto
3490 2632 2871 2760 conicto
2376 2859 lineto
1426 3047 1001 3447 conicto
576 3847 576 4560 conicto
576 5385 1152 5860 conicto
1728 6336 2740 6336 conicto
3173 6336 3623 6256 conicto
4073 6176 4544 6016 conicto
end_ol grestore 
gsave 32.227500 28.363750 translate 0.035278 -0.035278 scale
start_ol
3788 2917 moveto
4061 2825 4319 2524 conicto
4578 2223 4839 1697 conicto
5696 0 lineto
4788 0 lineto
3985 1593 lineto
3674 2217 3382 2420 conicto
3091 2624 2587 2624 conicto
1664 2624 lineto
1664 0 lineto
832 0 lineto
832 6208 lineto
2730 6208 lineto
3805 6208 4334 5764 conicto
4864 5320 4864 4423 conicto
4864 3838 4588 3452 conicto
4313 3066 3788 2917 conicto
1664 5504 moveto
1664 3328 lineto
2730 3328 lineto
3343 3328 3655 3605 conicto
3968 3882 3968 4420 conicto
3968 4958 3655 5231 conicto
3343 5504 2730 5504 conicto
1664 5504 lineto
end_ol grestore 
gsave 33.011766 28.363750 translate 0.035278 -0.035278 scale
start_ol
832 6208 moveto
4736 6208 lineto
4736 5504 lineto
1664 5504 lineto
1664 3648 lineto
4608 3648 lineto
4608 2944 lineto
1664 2944 lineto
1664 704 lineto
4800 704 lineto
4800 0 lineto
832 0 lineto
832 6208 lineto
end_ol grestore 
gsave 33.726092 28.363750 translate 0.035278 -0.035278 scale
start_ol
832 6208 moveto
1664 6208 lineto
1664 704 lineto
4672 704 lineto
4672 0 lineto
832 0 lineto
832 6208 lineto
end_ol grestore 
gsave 34.380472 28.363750 translate 0.035278 -0.035278 scale
start_ol
2912 5383 moveto
1771 2304 lineto
4057 2304 lineto
2912 5383 lineto
2437 6208 moveto
3391 6208 lineto
5760 0 lineto
4886 0 lineto
4319 1600 lineto
1517 1600 lineto
951 0 lineto
64 0 lineto
2437 6208 lineto
end_ol grestore 
gsave 35.064826 28.363750 translate 0.035278 -0.035278 scale
start_ol
0 6208 moveto
893 6208 lineto
2598 3655 lineto
4290 6208 lineto
5184 6208 lineto
3008 2956 lineto
3008 0 lineto
2176 0 lineto
2176 2956 lineto
0 6208 lineto
end_ol grestore 
gsave 32.403750 29.774861 translate 0.035278 -0.035278 scale
start_ol
2624 6464 moveto
2072 5504 1804 4564 conicto
1536 3625 1536 2660 conicto
1536 1696 1806 750 conicto
2076 -196 2624 -1152 conicto
1965 -1152 lineto
1332 -171 1018 777 conicto
704 1725 704 2660 conicto
704 3591 1016 4535 conicto
1328 5479 1965 6464 conicto
2624 6464 lineto
end_ol grestore 
gsave 32.843339 29.774861 translate 0.035278 -0.035278 scale
start_ol
3788 2917 moveto
4061 2825 4319 2524 conicto
4578 2223 4839 1697 conicto
5696 0 lineto
4788 0 lineto
3985 1593 lineto
3674 2217 3382 2420 conicto
3091 2624 2587 2624 conicto
1664 2624 lineto
1664 0 lineto
832 0 lineto
832 6208 lineto
2730 6208 lineto
3805 6208 4334 5764 conicto
4864 5320 4864 4423 conicto
4864 3838 4588 3452 conicto
4313 3066 3788 2917 conicto
1664 5504 moveto
1664 3328 lineto
2730 3328 lineto
3343 3328 3655 3605 conicto
3968 3882 3968 4420 conicto
3968 4958 3655 5231 conicto
3343 5504 2730 5504 conicto
1664 5504 lineto
end_ol grestore 
gsave 33.582642 29.774861 translate 0.035278 -0.035278 scale
start_ol
2912 5383 moveto
1771 2304 lineto
4057 2304 lineto
2912 5383 lineto
2437 6208 moveto
3391 6208 lineto
5760 0 lineto
4886 0 lineto
4319 1600 lineto
1517 1600 lineto
951 0 lineto
64 0 lineto
2437 6208 lineto
end_ol grestore 
gsave 34.354415 29.774861 translate 0.035278 -0.035278 scale
start_ol
3788 2917 moveto
4061 2825 4319 2524 conicto
4578 2223 4839 1697 conicto
5696 0 lineto
4788 0 lineto
3985 1593 lineto
3674 2217 3382 2420 conicto
3091 2624 2587 2624 conicto
1664 2624 lineto
1664 0 lineto
832 0 lineto
832 6208 lineto
2730 6208 lineto
3805 6208 4334 5764 conicto
4864 5320 4864 4423 conicto
4864 3838 4588 3452 conicto
4313 3066 3788 2917 conicto
1664 5504 moveto
1664 3328 lineto
2730 3328 lineto
3343 3328 3655 3605 conicto
3968 3882 3968 4420 conicto
3968 4958 3655 5231 conicto
3343 5504 2730 5504 conicto
1664 5504 lineto
end_ol grestore 
gsave 35.138682 29.774861 translate 0.035278 -0.035278 scale
start_ol
704 6464 moveto
1363 6464 lineto
1996 5479 2310 4535 conicto
2624 3591 2624 2660 conicto
2624 1725 2310 777 conicto
1996 -171 1363 -1152 conicto
704 -1152 lineto
1252 -196 1522 750 conicto
1792 1696 1792 2660 conicto
1792 3625 1522 4564 conicto
1252 5504 704 6464 conicto
end_ol grestore 
0.100000 slw
[] 0 sd
[] 0 sd
0 slc
0 slj
0.100000 slw
0 slc
0 slj
[] 0 sd
1.000000 1.000000 1.000000 srgb
n 24.749167 4.174312 m 22.167249 4.153015 17.159900 4.600263 17.864060 5.558654 c 18.568211 6.517044 21.932529 6.730011 23.340848 6.453151 c 24.749167 6.176283 21.150130 7.794889 28.035245 8.220840 c 34.920298 8.646791 38.441096 7.965269 37.423976 7.475425 c 36.406857 6.985581 43.448452 8.625493 46.734530 7.688401 c 50.020608 6.751308 43.370212 5.856819 44.778531 5.984605 c 46.186851 6.112390 50.490048 5.942010 49.081729 4.344693 c 47.673410 2.747376 34.998538 3.982634 36.406857 3.748361 c 37.815176 3.514088 34.294378 2.342720 29.913004 2.576993 c 25.531567 2.811268 25.220798 3.236389 24.751358 4.173482 c 24.749167 4.174312 l ef
0.000000 0.000000 0.000000 srgb
n 24.749167 4.174312 m 22.167249 4.153015 17.159900 4.600263 17.864060 5.558654 c 18.568211 6.517044 21.932529 6.730011 23.340848 6.453151 c 24.749167 6.176283 21.150130 7.794889 28.035245 8.220840 c 34.920298 8.646791 38.441096 7.965269 37.423976 7.475425 c 36.406857 6.985581 43.448452 8.625493 46.734530 7.688401 c 50.020608 6.751308 43.370212 5.856819 44.778531 5.984605 c 46.186851 6.112390 50.490048 5.942010 49.081729 4.344693 c 47.673410 2.747376 34.998538 3.982634 36.406857 3.748361 c 37.815176 3.514088 34.294378 2.342720 29.913004 2.576993 c 25.531567 2.811268 25.220798 3.236389 24.751358 4.173482 c 24.749167 4.174312 l s
gsave 29.638439 5.253105 translate 0.035278 -0.035278 scale
start_ol
1664 5504 moveto
1664 704 lineto
2686 704 lineto
3981 704 4582 1283 conicto
5184 1862 5184 3110 conicto
5184 4351 4582 4927 conicto
3981 5504 2686 5504 conicto
1664 5504 lineto
832 6208 moveto
2557 6208 lineto
4377 6208 5228 5457 conicto
6080 4707 6080 3110 conicto
6080 1505 5224 752 conicto
4369 0 2557 0 conicto
832 0 lineto
832 6208 lineto
end_ol grestore 
gsave 30.507620 5.253105 translate 0.035278 -0.035278 scale
start_ol
832 6208 moveto
1664 6208 lineto
1664 0 lineto
832 0 lineto
832 6208 lineto
end_ol grestore 
gsave 30.839804 5.253105 translate 0.035278 -0.035278 scale
start_ol
3788 2917 moveto
4061 2825 4319 2524 conicto
4578 2223 4839 1697 conicto
5696 0 lineto
4788 0 lineto
3985 1593 lineto
3674 2217 3382 2420 conicto
3091 2624 2587 2624 conicto
1664 2624 lineto
1664 0 lineto
832 0 lineto
832 6208 lineto
2730 6208 lineto
3805 6208 4334 5764 conicto
4864 5320 4864 4423 conicto
4864 3838 4588 3452 conicto
4313 3066 3788 2917 conicto
1664 5504 moveto
1664 3328 lineto
2730 3328 lineto
3343 3328 3655 3605 conicto
3968 3882 3968 4420 conicto
3968 4958 3655 5231 conicto
3343 5504 2730 5504 conicto
1664 5504 lineto
end_ol grestore 
gsave 31.624071 5.253105 translate 0.035278 -0.035278 scale
start_ol
832 6208 moveto
4736 6208 lineto
4736 5504 lineto
1664 5504 lineto
1664 3648 lineto
4608 3648 lineto
4608 2944 lineto
1664 2944 lineto
1664 704 lineto
4800 704 lineto
4800 0 lineto
832 0 lineto
832 6208 lineto
end_ol grestore 
gsave 32.338396 5.253105 translate 0.035278 -0.035278 scale
start_ol
5440 5760 moveto
5440 4864 lineto
5018 5250 4541 5441 conicto
4064 5632 3526 5632 conicto
2468 5632 1906 4982 conicto
1344 4332 1344 3102 conicto
1344 1876 1906 1226 conicto
2468 576 3526 576 conicto
4064 576 4541 767 conicto
5018 958 5440 1344 conicto
5440 448 lineto
5001 160 4509 16 conicto
4018 -128 3471 -128 conicto
2065 -128 1256 738 conicto
448 1604 448 3102 conicto
448 4604 1256 5470 conicto
2065 6336 3471 6336 conicto
4026 6336 4517 6192 conicto
5009 6048 5440 5760 conicto
end_ol grestore 
gsave 33.127656 5.253105 translate 0.035278 -0.035278 scale
start_ol
0 6208 moveto
5184 6208 lineto
5184 5504 lineto
3008 5504 lineto
3008 0 lineto
2176 0 lineto
2176 5504 lineto
0 5504 lineto
0 6208 lineto
end_ol grestore 
gsave 33.817012 5.253105 translate 0.035278 -0.035278 scale
start_ol
end_ol grestore 
gsave 34.176671 5.253105 translate 0.035278 -0.035278 scale
start_ol
832 6208 moveto
1664 6208 lineto
1664 0 lineto
832 0 lineto
832 6208 lineto
end_ol grestore 
gsave 34.508856 5.253105 translate 0.035278 -0.035278 scale
start_ol
832 6208 moveto
1974 6208 lineto
4672 1015 lineto
4672 6208 lineto
5504 6208 lineto
5504 0 lineto
4362 0 lineto
1664 5193 lineto
1664 0 lineto
832 0 lineto
832 6208 lineto
end_ol grestore 
gsave 35.353067 5.253105 translate 0.035278 -0.035278 scale
start_ol
0 6208 moveto
5184 6208 lineto
5184 5504 lineto
3008 5504 lineto
3008 0 lineto
2176 0 lineto
2176 5504 lineto
0 5504 lineto
0 6208 lineto
end_ol grestore 
gsave 36.042422 5.253105 translate 0.035278 -0.035278 scale
start_ol
832 6208 moveto
4736 6208 lineto
4736 5504 lineto
1664 5504 lineto
1664 3648 lineto
4608 3648 lineto
4608 2944 lineto
1664 2944 lineto
1664 704 lineto
4800 704 lineto
4800 0 lineto
832 0 lineto
832 6208 lineto
end_ol grestore 
gsave 36.756748 5.253105 translate 0.035278 -0.035278 scale
start_ol
3788 2917 moveto
4061 2825 4319 2524 conicto
4578 2223 4839 1697 conicto
5696 0 lineto
4788 0 lineto
3985 1593 lineto
3674 2217 3382 2420 conicto
3091 2624 2587 2624 conicto
1664 2624 lineto
1664 0 lineto
832 0 lineto
832 6208 lineto
2730 6208 lineto
3805 6208 4334 5764 conicto
4864 5320 4864 4423 conicto
4864 3838 4588 3452 conicto
4313 3066 3788 2917 conicto
1664 5504 moveto
1664 3328 lineto
2730 3328 lineto
3343 3328 3655 3605 conicto
3968 3882 3968 4420 conicto
3968 4958 3655 5231 conicto
3343 5504 2730 5504 conicto
1664 5504 lineto
end_ol grestore 
gsave 37.541014 5.253105 translate 0.035278 -0.035278 scale
start_ol
832 6208 moveto
1974 6208 lineto
4672 1015 lineto
4672 6208 lineto
5504 6208 lineto
5504 0 lineto
4362 0 lineto
1664 5193 lineto
1664 0 lineto
832 0 lineto
832 6208 lineto
end_ol grestore 
gsave 38.385225 5.253105 translate 0.035278 -0.035278 scale
start_ol
832 6208 moveto
4736 6208 lineto
4736 5504 lineto
1664 5504 lineto
1664 3648 lineto
4608 3648 lineto
4608 2944 lineto
1664 2944 lineto
1664 704 lineto
4800 704 lineto
4800 0 lineto
832 0 lineto
832 6208 lineto
end_ol grestore 
gsave 39.099550 5.253105 translate 0.035278 -0.035278 scale
start_ol
0 6208 moveto
5184 6208 lineto
5184 5504 lineto
3008 5504 lineto
3008 0 lineto
2176 0 lineto
2176 5504 lineto
0 5504 lineto
0 6208 lineto
end_ol grestore 
gsave 33.284689 6.664216 translate 0.035278 -0.035278 scale
start_ol
2624 6464 moveto
2072 5504 1804 4564 conicto
1536 3625 1536 2660 conicto
1536 1696 1806 750 conicto
2076 -196 2624 -1152 conicto
1965 -1152 lineto
1332 -171 1018 777 conicto
704 1725 704 2660 conicto
704 3591 1016 4535 conicto
1328 5479 1965 6464 conicto
2624 6464 lineto
end_ol grestore 
gsave 33.724278 6.664216 translate 0.035278 -0.035278 scale
start_ol
1664 5504 moveto
1664 704 lineto
2686 704 lineto
3981 704 4582 1283 conicto
5184 1862 5184 3110 conicto
5184 4351 4582 4927 conicto
3981 5504 2686 5504 conicto
1664 5504 lineto
832 6208 moveto
2557 6208 lineto
4377 6208 5228 5457 conicto
6080 4707 6080 3110 conicto
6080 1505 5224 752 conicto
4369 0 2557 0 conicto
832 0 lineto
832 6208 lineto
end_ol grestore 
gsave 34.593459 6.664216 translate 0.035278 -0.035278 scale
start_ol
832 6208 moveto
1664 6208 lineto
1664 0 lineto
832 0 lineto
832 6208 lineto
end_ol grestore 
gsave 34.925643 6.664216 translate 0.035278 -0.035278 scale
start_ol
3788 2917 moveto
4061 2825 4319 2524 conicto
4578 2223 4839 1697 conicto
5696 0 lineto
4788 0 lineto
3985 1593 lineto
3674 2217 3382 2420 conicto
3091 2624 2587 2624 conicto
1664 2624 lineto
1664 0 lineto
832 0 lineto
832 6208 lineto
2730 6208 lineto
3805 6208 4334 5764 conicto
4864 5320 4864 4423 conicto
4864 3838 4588 3452 conicto
4313 3066 3788 2917 conicto
1664 5504 moveto
1664 3328 lineto
2730 3328 lineto
3343 3328 3655 3605 conicto
3968 3882 3968 4420 conicto
3968 4958 3655 5231 conicto
3343 5504 2730 5504 conicto
1664 5504 lineto
end_ol grestore 
gsave 35.709909 6.664216 translate 0.035278 -0.035278 scale
start_ol
704 6464 moveto
1363 6464 lineto
1996 5479 2310 4535 conicto
2624 3591 2624 2660 conicto
2624 1725 2310 777 conicto
1996 -171 1363 -1152 conicto
704 -1152 lineto
1252 -196 1522 750 conicto
1792 1696 1792 2660 conicto
1792 3625 1522 4564 conicto
1252 5504 704 6464 conicto
end_ol grestore 
gsave 45.241300 16.387239 translate 0.035278 -0.035278 scale
start_ol
3788 2917 moveto
4061 2825 4319 2524 conicto
4578 2223 4839 1697 conicto
5696 0 lineto
4788 0 lineto
3985 1593 lineto
3674 2217 3382 2420 conicto
3091 2624 2587 2624 conicto
1664 2624 lineto
1664 0 lineto
832 0 lineto
832 6208 lineto
2730 6208 lineto
3805 6208 4334 5764 conicto
4864 5320 4864 4423 conicto
4864 3838 4588 3452 conicto
4313 3066 3788 2917 conicto
1664 5504 moveto
1664 3328 lineto
2730 3328 lineto
3343 3328 3655 3605 conicto
3968 3882 3968 4420 conicto
3968 4958 3655 5231 conicto
3343 5504 2730 5504 conicto
1664 5504 lineto
end_ol grestore 
gsave 46.025566 16.387239 translate 0.035278 -0.035278 scale
start_ol
832 6208 moveto
1664 6208 lineto
1664 0 lineto
832 0 lineto
832 6208 lineto
end_ol grestore 
gsave 46.357751 16.387239 translate 0.035278 -0.035278 scale
start_ol
1664 5504 moveto
1664 3200 lineto
2730 3200 lineto
3322 3200 3645 3500 conicto
3968 3800 3968 4354 conicto
3968 4904 3645 5204 conicto
3322 5504 2730 5504 conicto
1664 5504 lineto
832 6208 moveto
2730 6208 lineto
3784 6208 4324 5736 conicto
4864 5264 4864 4354 conicto
4864 3435 4324 2965 conicto
3784 2496 2730 2496 conicto
1664 2496 lineto
1664 0 lineto
832 0 lineto
832 6208 lineto
end_ol grestore 
gsave 47.039607 16.387239 translate 0.035278 -0.035278 scale
start_ol
832 6208 moveto
4736 6208 lineto
4736 5504 lineto
1664 5504 lineto
1664 3648 lineto
4608 3648 lineto
4608 2944 lineto
1664 2944 lineto
1664 704 lineto
4800 704 lineto
4800 0 lineto
832 0 lineto
832 6208 lineto
end_ol grestore 
gsave 47.753932 16.387239 translate 0.035278 -0.035278 scale
start_ol
end_ol grestore 
gsave 48.113592 16.387239 translate 0.035278 -0.035278 scale
start_ol
2912 5383 moveto
1771 2304 lineto
4057 2304 lineto
2912 5383 lineto
2437 6208 moveto
3391 6208 lineto
5760 0 lineto
4886 0 lineto
4319 1600 lineto
1517 1600 lineto
951 0 lineto
64 0 lineto
2437 6208 lineto
end_ol grestore 
gsave 48.797945 16.387239 translate 0.035278 -0.035278 scale
start_ol
0 6208 moveto
5184 6208 lineto
5184 5504 lineto
3008 5504 lineto
3008 0 lineto
2176 0 lineto
2176 5504 lineto
0 5504 lineto
0 6208 lineto
end_ol grestore 
gsave 49.487300 16.387239 translate 0.035278 -0.035278 scale
start_ol
832 6208 moveto
1664 6208 lineto
1664 704 lineto
4672 704 lineto
4672 0 lineto
832 0 lineto
832 6208 lineto
end_ol grestore 
gsave 50.141681 16.387239 translate 0.035278 -0.035278 scale
start_ol
2912 5383 moveto
1771 2304 lineto
4057 2304 lineto
2912 5383 lineto
2437 6208 moveto
3391 6208 lineto
5760 0 lineto
4886 0 lineto
4319 1600 lineto
1517 1600 lineto
951 0 lineto
64 0 lineto
2437 6208 lineto
end_ol grestore 
gsave 50.913454 16.387239 translate 0.035278 -0.035278 scale
start_ol
4544 6016 moveto
4544 5184 lineto
4078 5410 3664 5521 conicto
3251 5632 2866 5632 conicto
2197 5632 1834 5367 conicto
1472 5103 1472 4614 conicto
1472 4205 1711 3996 conicto
1950 3787 2617 3659 conicto
3108 3555 lineto
4041 3376 4484 2923 conicto
4928 2471 4928 1711 conicto
4928 806 4322 339 conicto
3716 -128 2546 -128 conicto
2104 -128 1606 -31 conicto
1109 66 576 256 conicto
576 1152 lineto
1086 866 1575 721 conicto
2064 576 2536 576 conicto
3253 576 3642 858 conicto
4032 1140 4032 1662 conicto
4032 2118 3761 2375 conicto
3490 2632 2871 2760 conicto
2376 2859 lineto
1426 3047 1001 3447 conicto
576 3847 576 4560 conicto
576 5385 1152 5860 conicto
1728 6336 2740 6336 conicto
3173 6336 3623 6256 conicto
4073 6176 4544 6016 conicto
end_ol grestore 
gsave 45.300050 17.798350 translate 0.035278 -0.035278 scale
start_ol
832 6208 moveto
4736 6208 lineto
4736 5504 lineto
1664 5504 lineto
1664 3648 lineto
4608 3648 lineto
4608 2944 lineto
1664 2944 lineto
1664 704 lineto
4800 704 lineto
4800 0 lineto
832 0 lineto
832 6208 lineto
end_ol grestore 
gsave 46.014375 17.798350 translate 0.035278 -0.035278 scale
start_ol
832 6208 moveto
1974 6208 lineto
4672 1015 lineto
4672 6208 lineto
5504 6208 lineto
5504 0 lineto
4362 0 lineto
1664 5193 lineto
1664 0 lineto
832 0 lineto
832 6208 lineto
end_ol grestore 
gsave 46.858586 17.798350 translate 0.035278 -0.035278 scale
start_ol
1664 5504 moveto
1664 704 lineto
2686 704 lineto
3981 704 4582 1283 conicto
5184 1862 5184 3110 conicto
5184 4351 4582 4927 conicto
3981 5504 2686 5504 conicto
1664 5504 lineto
832 6208 moveto
2557 6208 lineto
4377 6208 5228 5457 conicto
6080 4707 6080 3110 conicto
6080 1505 5224 752 conicto
4369 0 2557 0 conicto
832 0 lineto
832 6208 lineto
end_ol grestore 
gsave 47.727767 17.798350 translate 0.035278 -0.035278 scale
start_ol
448 2688 moveto
2688 2688 lineto
2688 1984 lineto
448 1984 lineto
448 2688 lineto
end_ol grestore 
gsave 48.134887 17.798350 translate 0.035278 -0.035278 scale
start_ol
1664 5504 moveto
1664 3200 lineto
2730 3200 lineto
3322 3200 3645 3500 conicto
3968 3800 3968 4354 conicto
3968 4904 3645 5204 conicto
3322 5504 2730 5504 conicto
1664 5504 lineto
832 6208 moveto
2730 6208 lineto
3784 6208 4324 5736 conicto
4864 5264 4864 4354 conicto
4864 3435 4324 2965 conicto
3784 2496 2730 2496 conicto
1664 2496 lineto
1664 0 lineto
832 0 lineto
832 6208 lineto
end_ol grestore 
gsave 48.816743 17.798350 translate 0.035278 -0.035278 scale
start_ol
3332 5632 moveto
2419 5632 1881 4953 conicto
1344 4274 1344 3102 conicto
1344 1934 1881 1255 conicto
2419 576 3332 576 conicto
4245 576 4778 1255 conicto
5312 1934 5312 3102 conicto
5312 4274 4778 4953 conicto
4245 5632 3332 5632 conicto
3332 6336 moveto
4641 6336 5424 5457 conicto
6208 4579 6208 3102 conicto
6208 1629 5424 750 conicto
4641 -128 3332 -128 conicto
2019 -128 1233 748 conicto
448 1625 448 3102 conicto
448 4579 1233 5457 conicto
2019 6336 3332 6336 conicto
end_ol grestore 
gsave 49.705908 17.798350 translate 0.035278 -0.035278 scale
start_ol
832 6208 moveto
1664 6208 lineto
1664 0 lineto
832 0 lineto
832 6208 lineto
end_ol grestore 
gsave 50.038093 17.798350 translate 0.035278 -0.035278 scale
start_ol
832 6208 moveto
1974 6208 lineto
4672 1015 lineto
4672 6208 lineto
5504 6208 lineto
5504 0 lineto
4362 0 lineto
1664 5193 lineto
1664 0 lineto
832 0 lineto
832 6208 lineto
end_ol grestore 
gsave 50.882304 17.798350 translate 0.035278 -0.035278 scale
start_ol
0 6208 moveto
5184 6208 lineto
5184 5504 lineto
3008 5504 lineto
3008 0 lineto
2176 0 lineto
2176 5504 lineto
0 5504 lineto
0 6208 lineto
end_ol grestore 
gsave 46.885050 19.209461 translate 0.035278 -0.035278 scale
start_ol
2624 6464 moveto
2072 5504 1804 4564 conicto
1536 3625 1536 2660 conicto
1536 1696 1806 750 conicto
2076 -196 2624 -1152 conicto
1965 -1152 lineto
1332 -171 1018 777 conicto
704 1725 704 2660 conicto
704 3591 1016 4535 conicto
1328 5479 1965 6464 conicto
2624 6464 lineto
end_ol grestore 
gsave 47.324639 19.209461 translate 0.035278 -0.035278 scale
start_ol
3788 2917 moveto
4061 2825 4319 2524 conicto
4578 2223 4839 1697 conicto
5696 0 lineto
4788 0 lineto
3985 1593 lineto
3674 2217 3382 2420 conicto
3091 2624 2587 2624 conicto
1664 2624 lineto
1664 0 lineto
832 0 lineto
832 6208 lineto
2730 6208 lineto
3805 6208 4334 5764 conicto
4864 5320 4864 4423 conicto
4864 3838 4588 3452 conicto
4313 3066 3788 2917 conicto
1664 5504 moveto
1664 3328 lineto
2730 3328 lineto
3343 3328 3655 3605 conicto
3968 3882 3968 4420 conicto
3968 4958 3655 5231 conicto
3343 5504 2730 5504 conicto
1664 5504 lineto
end_ol grestore 
gsave 48.063942 19.209461 translate 0.035278 -0.035278 scale
start_ol
2912 5383 moveto
1771 2304 lineto
4057 2304 lineto
2912 5383 lineto
2437 6208 moveto
3391 6208 lineto
5760 0 lineto
4886 0 lineto
4319 1600 lineto
1517 1600 lineto
951 0 lineto
64 0 lineto
2437 6208 lineto
end_ol grestore 
gsave 48.835715 19.209461 translate 0.035278 -0.035278 scale
start_ol
832 6208 moveto
4736 6208 lineto
4736 5504 lineto
1664 5504 lineto
1664 3648 lineto
4608 3648 lineto
4608 2944 lineto
1664 2944 lineto
1664 704 lineto
4800 704 lineto
4800 0 lineto
832 0 lineto
832 6208 lineto
end_ol grestore 
gsave 49.550041 19.209461 translate 0.035278 -0.035278 scale
start_ol
704 6464 moveto
1363 6464 lineto
1996 5479 2310 4535 conicto
2624 3591 2624 2660 conicto
2624 1725 2310 777 conicto
1996 -171 1363 -1152 conicto
704 -1152 lineto
1252 -196 1522 750 conicto
1792 1696 1792 2660 conicto
1792 3625 1522 4564 conicto
1252 5504 704 6464 conicto
end_ol grestore 
0.100000 slw
[] 0 sd
[] 0 sd
0 slc
n 34.469607 22.010239 14.806233 14.806233 214.444488 325.882190 ellipse s
0.100000 slw
[] 0 sd
0 slj
0 slc
n 22.264318 13.173081 m 22.196054 13.727914 l 22.680879 13.449626 l s
0.100000 slw
[] 0 sd
0 slj
0 slc
n 46.306953 13.516979 m 46.790184 13.798027 l 46.725084 13.242814 l s
0.100000 slw
[] 0 sd
[] 0 sd
0 slc
n 24.187569 15.769129 m 30.447578 13.384678 l s
0.100000 slw
[] 0 sd
0 slj
0 slc
n 24.461351 15.397323 m 24.083088 15.808926 l 24.639328 15.864574 l s
0.100000 slw
[] 0 sd
0 slj
0 slc
n 30.173795 13.756484 m 30.552059 13.344881 l 29.995818 13.289232 l s
0.100000 slw
[] 0 sd
[] 0 sd
0 slc
n 24.369670 17.969152 m 30.009339 19.104578 l s
0.100000 slw
[] 0 sd
0 slj
0 slc
n 24.799573 17.800687 m 24.260066 17.947086 l 24.700889 18.290852 l s
0.100000 slw
[] 0 sd
0 slj
0 slc
n 29.579436 19.273043 m 30.118943 19.126644 l 29.678120 18.782878 l s
0.100000 slw
[] 0 sd
[] 0 sd
0 slc
n 23.605729 19.629618 m 30.945990 25.356956 l s
0.100000 slw
[] 0 sd
0 slj
0 slc
n 24.065574 19.671321 m 23.517583 19.560841 l 23.757994 20.065522 l s
0.100000 slw
[] 0 sd
0 slj
0 slc
n 30.486145 25.315253 m 31.034136 25.425733 l 30.793726 24.921052 l s
0.100000 slw
[] 0 sd
[] 0 sd
0 slc
n 37.507438 12.167468 m 44.851875 15.612885 l s
0.100000 slw
[] 0 sd
0 slj
0 slc
n 37.965061 12.106005 m 37.406219 12.119984 l 37.752707 12.558670 l s
0.100000 slw
[] 0 sd
0 slj
0 slc
n 44.394252 15.674347 m 44.953094 15.660368 l 44.606606 15.221682 l s
0.100000 slw
[] 0 sd
[] 0 sd
0 slc
n 37.238933 25.470447 m 45.237442 19.699196 l s
0.100000 slw
[] 0 sd
0 slj
0 slc
n 37.407456 25.040567 m 37.148267 25.535866 l 37.700020 25.446037 l s
0.100000 slw
[] 0 sd
0 slj
0 slc
n 45.068919 20.129076 m 45.328108 19.633777 l 44.776355 19.723605 l s
0.100000 slw
[] 0 sd
[] 0 sd
0 slc
n 38.003467 19.195368 m 44.530552 18.038904 l s
0.100000 slw
[] 0 sd
0 slj
0 slc
n 38.342094 18.881477 m 37.893378 19.214874 l 38.429325 19.373809 l s
0.100000 slw
[] 0 sd
0 slj
0 slc
n 44.191924 18.352796 m 44.640640 18.019399 l 44.104693 17.860464 l s
0.100000 slw
[] 0 sd
[] 0 sd
0 slc
n 15.723607 26.600000 m 18.576393 26.600000 l s
0.100000 slw
[] 0 sd
0 slj
0 slc
n 16.111803 26.350000 m 15.611803 26.600000 l 16.111803 26.850000 l s
0.100000 slw
[] 0 sd
0 slj
0 slc
n 18.188197 26.850000 m 18.688197 26.600000 l 18.188197 26.350000 l s
gsave 18.900000 26.350000 translate 0.035278 -0.035278 scale
start_ol
3788 2917 moveto
4061 2825 4319 2524 conicto
4578 2223 4839 1697 conicto
5696 0 lineto
4788 0 lineto
3985 1593 lineto
3674 2217 3382 2420 conicto
3091 2624 2587 2624 conicto
1664 2624 lineto
1664 0 lineto
832 0 lineto
832 6208 lineto
2730 6208 lineto
3805 6208 4334 5764 conicto
4864 5320 4864 4423 conicto
4864 3838 4588 3452 conicto
4313 3066 3788 2917 conicto
1664 5504 moveto
1664 3328 lineto
2730 3328 lineto
3343 3328 3655 3605 conicto
3968 3882 3968 4420 conicto
3968 4958 3655 5231 conicto
3343 5504 2730 5504 conicto
1664 5504 lineto
end_ol grestore 
gsave 19.601840 26.350000 translate 0.035278 -0.035278 scale
start_ol
0 6208 moveto
5184 6208 lineto
5184 5504 lineto
3008 5504 lineto
3008 0 lineto
2176 0 lineto
2176 5504 lineto
0 5504 lineto
0 6208 lineto
end_ol grestore 
gsave 20.271211 26.350000 translate 0.035278 -0.035278 scale
start_ol
0 6208 moveto
5184 6208 lineto
5184 5504 lineto
3008 5504 lineto
3008 0 lineto
2176 0 lineto
2176 5504 lineto
0 5504 lineto
0 6208 lineto
end_ol grestore 
gsave 20.960567 26.350000 translate 0.035278 -0.035278 scale
start_ol
end_ol grestore 
gsave 21.320226 26.350000 translate 0.035278 -0.035278 scale
start_ol
832 6208 moveto
2099 6208 lineto
3678 2002 lineto
5265 6208 lineto
6528 6208 lineto
6528 0 lineto
5696 0 lineto
5696 5455 lineto
4101 1216 lineto
3259 1216 lineto
1664 5455 lineto
1664 0 lineto
832 0 lineto
832 6208 lineto
end_ol grestore 
gsave 22.294315 26.350000 translate 0.035278 -0.035278 scale
start_ol
832 6208 moveto
4736 6208 lineto
4736 5504 lineto
1664 5504 lineto
1664 3648 lineto
4608 3648 lineto
4608 2944 lineto
1664 2944 lineto
1664 704 lineto
4800 704 lineto
4800 0 lineto
832 0 lineto
832 6208 lineto
end_ol grestore 
gsave 23.008640 26.350000 translate 0.035278 -0.035278 scale
start_ol
2912 5383 moveto
1771 2304 lineto
4057 2304 lineto
2912 5383 lineto
2437 6208 moveto
3391 6208 lineto
5760 0 lineto
4886 0 lineto
4319 1600 lineto
1517 1600 lineto
951 0 lineto
64 0 lineto
2437 6208 lineto
end_ol grestore 
gsave 23.780413 26.350000 translate 0.035278 -0.035278 scale
start_ol
4544 6016 moveto
4544 5184 lineto
4078 5410 3664 5521 conicto
3251 5632 2866 5632 conicto
2197 5632 1834 5367 conicto
1472 5103 1472 4614 conicto
1472 4205 1711 3996 conicto
1950 3787 2617 3659 conicto
3108 3555 lineto
4041 3376 4484 2923 conicto
4928 2471 4928 1711 conicto
4928 806 4322 339 conicto
3716 -128 2546 -128 conicto
2104 -128 1606 -31 conicto
1109 66 576 256 conicto
576 1152 lineto
1086 866 1575 721 conicto
2064 576 2536 576 conicto
3253 576 3642 858 conicto
4032 1140 4032 1662 conicto
4032 2118 3761 2375 conicto
3490 2632 2871 2760 conicto
2376 2859 lineto
1426 3047 1001 3447 conicto
576 3847 576 4560 conicto
576 5385 1152 5860 conicto
1728 6336 2740 6336 conicto
3173 6336 3623 6256 conicto
4073 6176 4544 6016 conicto
end_ol grestore 
gsave 24.497236 26.350000 translate 0.035278 -0.035278 scale
start_ol
768 6208 moveto
1600 6208 lineto
1600 2446 lineto
1600 1451 1962 1013 conicto
2325 576 3138 576 conicto
3947 576 4309 1013 conicto
4672 1451 4672 2446 conicto
4672 6208 lineto
5504 6208 lineto
5504 2343 lineto
5504 1120 4905 496 conicto
4307 -128 3138 -128 conicto
1965 -128 1366 496 conicto
768 1120 768 2343 conicto
768 6208 lineto
end_ol grestore 
gsave 25.323959 26.350000 translate 0.035278 -0.035278 scale
start_ol
3788 2917 moveto
4061 2825 4319 2524 conicto
4578 2223 4839 1697 conicto
5696 0 lineto
4788 0 lineto
3985 1593 lineto
3674 2217 3382 2420 conicto
3091 2624 2587 2624 conicto
1664 2624 lineto
1664 0 lineto
832 0 lineto
832 6208 lineto
2730 6208 lineto
3805 6208 4334 5764 conicto
4864 5320 4864 4423 conicto
4864 3838 4588 3452 conicto
4313 3066 3788 2917 conicto
1664 5504 moveto
1664 3328 lineto
2730 3328 lineto
3343 3328 3655 3605 conicto
3968 3882 3968 4420 conicto
3968 4958 3655 5231 conicto
3343 5504 2730 5504 conicto
1664 5504 lineto
end_ol grestore 
gsave 26.108226 26.350000 translate 0.035278 -0.035278 scale
start_ol
832 6208 moveto
4736 6208 lineto
4736 5504 lineto
1664 5504 lineto
1664 3648 lineto
4608 3648 lineto
4608 2944 lineto
1664 2944 lineto
1664 704 lineto
4800 704 lineto
4800 0 lineto
832 0 lineto
832 6208 lineto
end_ol grestore 
gsave 26.822551 26.350000 translate 0.035278 -0.035278 scale
start_ol
832 6208 moveto
2099 6208 lineto
3678 2002 lineto
5265 6208 lineto
6528 6208 lineto
6528 0 lineto
5696 0 lineto
5696 5455 lineto
4101 1216 lineto
3259 1216 lineto
1664 5455 lineto
1664 0 lineto
832 0 lineto
832 6208 lineto
end_ol grestore 
gsave 27.796639 26.350000 translate 0.035278 -0.035278 scale
start_ol
832 6208 moveto
4736 6208 lineto
4736 5504 lineto
1664 5504 lineto
1664 3648 lineto
4608 3648 lineto
4608 2944 lineto
1664 2944 lineto
1664 704 lineto
4800 704 lineto
4800 0 lineto
832 0 lineto
832 6208 lineto
end_ol grestore 
gsave 28.510965 26.350000 translate 0.035278 -0.035278 scale
start_ol
832 6208 moveto
1974 6208 lineto
4672 1015 lineto
4672 6208 lineto
5504 6208 lineto
5504 0 lineto
4362 0 lineto
1664 5193 lineto
1664 0 lineto
832 0 lineto
832 6208 lineto
end_ol grestore 
gsave 29.355176 26.350000 translate 0.035278 -0.035278 scale
start_ol
0 6208 moveto
5184 6208 lineto
5184 5504 lineto
3008 5504 lineto
3008 0 lineto
2176 0 lineto
2176 5504 lineto
0 5504 lineto
0 6208 lineto
end_ol grestore 
gsave 18.900000 27.761111 translate 0.035278 -0.035278 scale
start_ol
2624 6464 moveto
2072 5504 1804 4564 conicto
1536 3625 1536 2660 conicto
1536 1696 1806 750 conicto
2076 -196 2624 -1152 conicto
1965 -1152 lineto
1332 -171 1018 777 conicto
704 1725 704 2660 conicto
704 3591 1016 4535 conicto
1328 5479 1965 6464 conicto
2624 6464 lineto
end_ol grestore 
gsave 19.339589 27.761111 translate 0.035278 -0.035278 scale
start_ol
1664 5504 moveto
1664 3200 lineto
2730 3200 lineto
3322 3200 3645 3500 conicto
3968 3800 3968 4354 conicto
3968 4904 3645 5204 conicto
3322 5504 2730 5504 conicto
1664 5504 lineto
832 6208 moveto
2730 6208 lineto
3784 6208 4324 5736 conicto
4864 5264 4864 4354 conicto
4864 3435 4324 2965 conicto
3784 2496 2730 2496 conicto
1664 2496 lineto
1664 0 lineto
832 0 lineto
832 6208 lineto
end_ol grestore 
gsave 20.021445 27.761111 translate 0.035278 -0.035278 scale
start_ol
832 6208 moveto
1664 6208 lineto
1664 0 lineto
832 0 lineto
832 6208 lineto
end_ol grestore 
gsave 20.353629 27.761111 translate 0.035278 -0.035278 scale
start_ol
832 6208 moveto
1974 6208 lineto
4672 1015 lineto
4672 6208 lineto
5504 6208 lineto
5504 0 lineto
4362 0 lineto
1664 5193 lineto
1664 0 lineto
832 0 lineto
832 6208 lineto
end_ol grestore 
gsave 21.197840 27.761111 translate 0.035278 -0.035278 scale
start_ol
5056 892 moveto
5056 2560 lineto
3712 2560 lineto
3712 3264 lineto
5888 3264 lineto
5888 584 lineto
5400 232 4811 52 conicto
4223 -128 3556 -128 conicto
2096 -128 1272 725 conicto
448 1579 448 3102 conicto
448 4629 1267 5482 conicto
2087 6336 3539 6336 conicto
4144 6336 4690 6190 conicto
5236 6044 5696 5760 conicto
5696 4864 lineto
5233 5246 4711 5439 conicto
4190 5632 3615 5632 conicto
2482 5632 1913 4996 conicto
1344 4361 1344 3102 conicto
1344 1847 1917 1211 conicto
2490 576 3631 576 conicto
4077 576 4427 653 conicto
4777 730 5056 892 conicto
end_ol grestore 
gsave 22.072023 27.761111 translate 0.035278 -0.035278 scale
start_ol
704 6464 moveto
1363 6464 lineto
1996 5479 2310 4535 conicto
2624 3591 2624 2660 conicto
2624 1725 2310 777 conicto
1996 -171 1363 -1152 conicto
704 -1152 lineto
1252 -196 1522 750 conicto
1792 1696 1792 2660 conicto
1792 3625 1522 4564 conicto
1252 5504 704 6464 conicto
end_ol grestore 
showpage
