%!PS-Adobe-3.0 EPSF-3.0
%%Title: Figures/node_set_sizes.eps
%%Creator: matplotlib version 2.0.0, http://matplotlib.org/
%%CreationDate: Wed May 17 12:29:03 2017
%%Orientation: portrait
%%BoundingBox: 75 223 536 568
%%EndComments
%%BeginProlog
/mpldict 8 dict def
mpldict begin
/m { moveto } bind def
/l { lineto } bind def
/r { rlineto } bind def
/c { curveto } bind def
/cl { closepath } bind def
/box {
m
1 index 0 r
0 exch r
neg 0 r
cl
} bind def
/clipbox {
box
clip
newpath
} bind def
%!PS-Adobe-3.0 Resource-Font
%%Title: DejaVu Sans
%%Copyright: Copyright (c) 2003 by Bitstream, Inc. All Rights Reserved. Copyright (c) 2006 by Tavmjong Bah. All Rights Reserved. DejaVu changes are in public domain 
%%Creator: Converted from TrueType to type 3 by PPR
25 dict begin
/_d{bind def}bind def
/_m{moveto}_d
/_l{lineto}_d
/_cl{closepath eofill}_d
/_c{curveto}_d
/_sc{7 -1 roll{setcachedevice}{pop pop pop pop pop pop}ifelse}_d
/_e{exec}_d
/FontName /DejaVuSans def
/PaintType 0 def
/FontMatrix[.001 0 0 .001 0 0]def
/FontBBox[-1021 -463 1793 1232]def
/FontType 3 def
/Encoding [ /space /zero /one /two /three /four /five /six /seven /eight /nine /A /C /E /F /H /L /M /O /P /R /S /T /Y /underscore /a /b /d /e /f /h /i /l /m /n /o /p /r /s /t /u /y /z ] def
/FontInfo 10 dict dup begin
/FamilyName (DejaVu Sans) def
/FullName (DejaVu Sans) def
/Notice (Copyright (c) 2003 by Bitstream, Inc. All Rights Reserved. Copyright (c) 2006 by Tavmjong Bah. All Rights Reserved. DejaVu changes are in public domain ) def
/Weight (Book) def
/Version (Version 2.35) def
/ItalicAngle 0.0 def
/isFixedPitch false def
/UnderlinePosition -130 def
/UnderlineThickness 90 def
end readonly def
/CharStrings 43 dict dup begin
/space{318 0 0 0 0 0 _sc
}_d
/zero{636 0 66 -13 570 742 _sc
318 664 _m
267 664 229 639 203 589 _c
177 539 165 464 165 364 _c
165 264 177 189 203 139 _c
229 89 267 64 318 64 _c
369 64 407 89 433 139 _c
458 189 471 264 471 364 _c
471 464 458 539 433 589 _c
407 639 369 664 318 664 _c
318 742 _m
399 742 461 709 505 645 _c
548 580 570 486 570 364 _c
570 241 548 147 505 83 _c
461 19 399 -13 318 -13 _c
236 -13 173 19 130 83 _c
87 147 66 241 66 364 _c
66 486 87 580 130 645 _c
173 709 236 742 318 742 _c
_cl}_d
/one{636 0 110 0 544 729 _sc
124 83 _m
285 83 _l
285 639 _l
110 604 _l
110 694 _l
284 729 _l
383 729 _l
383 83 _l
544 83 _l
544 0 _l
124 0 _l
124 83 _l
_cl}_d
/two{{636 0 73 0 536 742 _sc
192 83 _m
536 83 _l
536 0 _l
73 0 _l
73 83 _l
110 121 161 173 226 239 _c
290 304 331 346 348 365 _c
380 400 402 430 414 455 _c
426 479 433 504 433 528 _c
433 566 419 598 392 622 _c
365 646 330 659 286 659 _c
255 659 222 653 188 643 _c
154 632 117 616 78 594 _c
78 694 _l
118 710 155 722 189 730 _c
223 738 255 742 284 742 _c
}_e{359 742 419 723 464 685 _c
509 647 532 597 532 534 _c
532 504 526 475 515 449 _c
504 422 484 390 454 354 _c
446 344 420 317 376 272 _c
332 227 271 164 192 83 _c
_cl}_e}_d
/three{{636 0 76 -13 556 742 _sc
406 393 _m
453 383 490 362 516 330 _c
542 298 556 258 556 212 _c
556 140 531 84 482 45 _c
432 6 362 -13 271 -13 _c
240 -13 208 -10 176 -4 _c
144 1 110 10 76 22 _c
76 117 _l
103 101 133 89 166 81 _c
198 73 232 69 268 69 _c
330 69 377 81 409 105 _c
441 129 458 165 458 212 _c
458 254 443 288 413 312 _c
383 336 341 349 287 349 _c
}_e{202 349 _l
202 430 _l
291 430 _l
339 430 376 439 402 459 _c
428 478 441 506 441 543 _c
441 580 427 609 401 629 _c
374 649 336 659 287 659 _c
260 659 231 656 200 650 _c
169 644 135 635 98 623 _c
98 711 _l
135 721 170 729 203 734 _c
235 739 266 742 296 742 _c
370 742 429 725 473 691 _c
517 657 539 611 539 553 _c
539 513 527 479 504 451 _c
481 423 448 403 406 393 _c
_cl}_e}_d
/four{636 0 49 0 580 729 _sc
378 643 _m
129 254 _l
378 254 _l
378 643 _l
352 729 _m
476 729 _l
476 254 _l
580 254 _l
580 172 _l
476 172 _l
476 0 _l
378 0 _l
378 172 _l
49 172 _l
49 267 _l
352 729 _l
_cl}_d
/five{{636 0 77 -13 549 729 _sc
108 729 _m
495 729 _l
495 646 _l
198 646 _l
198 467 _l
212 472 227 476 241 478 _c
255 480 270 482 284 482 _c
365 482 429 459 477 415 _c
525 370 549 310 549 234 _c
549 155 524 94 475 51 _c
426 8 357 -13 269 -13 _c
238 -13 207 -10 175 -6 _c
143 -1 111 6 77 17 _c
77 116 _l
106 100 136 88 168 80 _c
199 72 232 69 267 69 _c
}_e{323 69 368 83 401 113 _c
433 143 450 183 450 234 _c
450 284 433 324 401 354 _c
368 384 323 399 267 399 _c
241 399 214 396 188 390 _c
162 384 135 375 108 363 _c
108 729 _l
_cl}_e}_d
/six{{636 0 70 -13 573 742 _sc
330 404 _m
286 404 251 388 225 358 _c
199 328 186 286 186 234 _c
186 181 199 139 225 109 _c
251 79 286 64 330 64 _c
374 64 409 79 435 109 _c
461 139 474 181 474 234 _c
474 286 461 328 435 358 _c
409 388 374 404 330 404 _c
526 713 _m
526 623 _l
501 635 476 644 451 650 _c
425 656 400 659 376 659 _c
310 659 260 637 226 593 _c
}_e{192 549 172 482 168 394 _c
187 422 211 444 240 459 _c
269 474 301 482 336 482 _c
409 482 467 459 509 415 _c
551 371 573 310 573 234 _c
573 159 550 99 506 54 _c
462 9 403 -13 330 -13 _c
246 -13 181 19 137 83 _c
92 147 70 241 70 364 _c
70 479 97 571 152 639 _c
206 707 280 742 372 742 _c
396 742 421 739 447 735 _c
472 730 498 723 526 713 _c
_cl}_e}_d
/seven{636 0 82 0 551 729 _sc
82 729 _m
551 729 _l
551 687 _l
286 0 _l
183 0 _l
432 646 _l
82 646 _l
82 729 _l
_cl}_d
/eight{{636 0 68 -13 568 742 _sc
318 346 _m
271 346 234 333 207 308 _c
180 283 167 249 167 205 _c
167 161 180 126 207 101 _c
234 76 271 64 318 64 _c
364 64 401 76 428 102 _c
455 127 469 161 469 205 _c
469 249 455 283 429 308 _c
402 333 365 346 318 346 _c
219 388 _m
177 398 144 418 120 447 _c
96 476 85 511 85 553 _c
85 611 105 657 147 691 _c
188 725 245 742 318 742 _c
}_e{390 742 447 725 489 691 _c
530 657 551 611 551 553 _c
551 511 539 476 515 447 _c
491 418 459 398 417 388 _c
464 377 501 355 528 323 _c
554 291 568 251 568 205 _c
568 134 546 80 503 43 _c
459 5 398 -13 318 -13 _c
237 -13 175 5 132 43 _c
89 80 68 134 68 205 _c
68 251 81 291 108 323 _c
134 355 171 377 219 388 _c
183 544 _m
183 506 194 476 218 455 _c
}_e{242 434 275 424 318 424 _c
360 424 393 434 417 455 _c
441 476 453 506 453 544 _c
453 582 441 611 417 632 _c
393 653 360 664 318 664 _c
275 664 242 653 218 632 _c
194 611 183 582 183 544 _c
_cl}_e}_d
/nine{{636 0 63 -13 566 742 _sc
110 15 _m
110 105 _l
134 93 159 84 185 78 _c
210 72 235 69 260 69 _c
324 69 374 90 408 134 _c
442 178 462 244 468 334 _c
448 306 424 284 396 269 _c
367 254 335 247 300 247 _c
226 247 168 269 126 313 _c
84 357 63 417 63 494 _c
63 568 85 628 129 674 _c
173 719 232 742 306 742 _c
390 742 455 709 499 645 _c
543 580 566 486 566 364 _c
}_e{566 248 538 157 484 89 _c
429 21 356 -13 264 -13 _c
239 -13 214 -10 189 -6 _c
163 -2 137 5 110 15 _c
306 324 _m
350 324 385 339 411 369 _c
437 399 450 441 450 494 _c
450 546 437 588 411 618 _c
385 648 350 664 306 664 _c
262 664 227 648 201 618 _c
175 588 162 546 162 494 _c
162 441 175 399 201 369 _c
227 339 262 324 306 324 _c
_cl}_e}_d
/A{684 0 8 0 676 729 _sc
342 632 _m
208 269 _l
476 269 _l
342 632 _l
286 729 _m
398 729 _l
676 0 _l
573 0 _l
507 187 _l
178 187 _l
112 0 _l
8 0 _l
286 729 _l
_cl}_d
/C{{698 0 56 -13 644 742 _sc
644 673 _m
644 569 _l
610 599 575 622 537 638 _c
499 653 460 661 418 661 _c
334 661 270 635 226 584 _c
182 533 160 460 160 364 _c
160 268 182 194 226 143 _c
270 92 334 67 418 67 _c
460 67 499 74 537 90 _c
575 105 610 128 644 159 _c
644 56 _l
609 32 572 15 534 4 _c
496 -7 455 -13 412 -13 _c
302 -13 215 20 151 87 _c
}_e{87 154 56 246 56 364 _c
56 481 87 573 151 641 _c
215 708 302 742 412 742 _c
456 742 497 736 535 725 _c
573 713 610 696 644 673 _c
_cl}_e}_d
/E{632 0 98 0 568 729 _sc
98 729 _m
559 729 _l
559 646 _l
197 646 _l
197 430 _l
544 430 _l
544 347 _l
197 347 _l
197 83 _l
568 83 _l
568 0 _l
98 0 _l
98 729 _l
_cl}_d
/F{575 0 98 0 517 729 _sc
98 729 _m
517 729 _l
517 646 _l
197 646 _l
197 431 _l
486 431 _l
486 348 _l
197 348 _l
197 0 _l
98 0 _l
98 729 _l
_cl}_d
/H{752 0 98 0 654 729 _sc
98 729 _m
197 729 _l
197 430 _l
555 430 _l
555 729 _l
654 729 _l
654 0 _l
555 0 _l
555 347 _l
197 347 _l
197 0 _l
98 0 _l
98 729 _l
_cl}_d
/L{557 0 98 0 552 729 _sc
98 729 _m
197 729 _l
197 83 _l
552 83 _l
552 0 _l
98 0 _l
98 729 _l
_cl}_d
/M{863 0 98 0 765 729 _sc
98 729 _m
245 729 _l
431 233 _l
618 729 _l
765 729 _l
765 0 _l
669 0 _l
669 640 _l
481 140 _l
382 140 _l
194 640 _l
194 0 _l
98 0 _l
98 729 _l
_cl}_d
/O{787 0 56 -13 731 742 _sc
394 662 _m
322 662 265 635 223 582 _c
181 528 160 456 160 364 _c
160 272 181 199 223 146 _c
265 92 322 66 394 66 _c
465 66 522 92 564 146 _c
606 199 627 272 627 364 _c
627 456 606 528 564 582 _c
522 635 465 662 394 662 _c
394 742 _m
496 742 577 707 639 639 _c
700 571 731 479 731 364 _c
731 248 700 157 639 89 _c
577 21 496 -13 394 -13 _c
291 -13 209 21 148 89 _c
86 157 56 248 56 364 _c
56 479 86 571 148 639 _c
209 707 291 742 394 742 _c
_cl}_d
/P{603 0 98 0 569 729 _sc
197 648 _m
197 374 _l
321 374 _l
367 374 402 385 427 409 _c
452 433 465 467 465 511 _c
465 555 452 588 427 612 _c
402 636 367 648 321 648 _c
197 648 _l
98 729 _m
321 729 _l
402 729 464 710 506 673 _c
548 636 569 582 569 511 _c
569 439 548 384 506 348 _c
464 311 402 293 321 293 _c
197 293 _l
197 0 _l
98 0 _l
98 729 _l
_cl}_d
/R{{695 0 98 0 666 729 _sc
444 342 _m
465 334 486 319 506 296 _c
526 272 546 240 566 199 _c
666 0 _l
560 0 _l
467 187 _l
443 235 419 268 397 284 _c
374 300 343 308 304 308 _c
197 308 _l
197 0 _l
98 0 _l
98 729 _l
321 729 _l
404 729 466 711 507 677 _c
548 642 569 589 569 519 _c
569 473 558 434 537 404 _c
515 374 484 353 444 342 _c
197 648 _m
197 389 _l
321 389 _l
}_e{368 389 404 400 428 422 _c
452 444 465 476 465 519 _c
465 561 452 593 428 615 _c
404 637 368 648 321 648 _c
197 648 _l
_cl}_e}_d
/S{{635 0 66 -13 579 742 _sc
535 705 _m
535 609 _l
497 627 462 640 429 649 _c
395 657 363 662 333 662 _c
279 662 237 651 208 631 _c
179 610 165 580 165 542 _c
165 510 174 485 194 469 _c
213 452 250 439 304 429 _c
364 417 _l
437 403 491 378 526 343 _c
561 307 579 260 579 201 _c
579 130 555 77 508 41 _c
460 5 391 -13 300 -13 _c
265 -13 228 -9 189 -2 _c
}_e{150 5 110 16 69 32 _c
69 134 _l
109 111 148 94 186 83 _c
224 71 262 66 300 66 _c
356 66 399 77 430 99 _c
460 121 476 152 476 194 _c
476 230 465 258 443 278 _c
421 298 385 313 335 323 _c
275 335 _l
201 349 148 372 115 404 _c
82 435 66 478 66 534 _c
66 598 88 649 134 686 _c
179 723 242 742 322 742 _c
356 742 390 739 426 733 _c
461 727 497 717 535 705 _c
}_e{_cl}_e}_d
/T{611 0 -2 0 614 729 _sc
-2 729 _m
614 729 _l
614 646 _l
355 646 _l
355 0 _l
256 0 _l
256 646 _l
-2 646 _l
-2 729 _l
_cl}_d
/Y{611 0 -1 0 613 729 _sc
-1 729 _m
104 729 _l
306 429 _l
507 729 _l
613 729 _l
355 347 _l
355 0 _l
256 0 _l
256 347 _l
-1 729 _l
_cl}_d
/underscore{500 0 -9 -235 510 -165 _sc
510 -165 _m
510 -235 _l
-9 -235 _l
-9 -165 _l
510 -165 _l
_cl}_d
/a{{613 0 60 -13 522 560 _sc
343 275 _m
270 275 220 266 192 250 _c
164 233 150 205 150 165 _c
150 133 160 107 181 89 _c
202 70 231 61 267 61 _c
317 61 357 78 387 114 _c
417 149 432 196 432 255 _c
432 275 _l
343 275 _l
522 312 _m
522 0 _l
432 0 _l
432 83 _l
411 49 385 25 355 10 _c
325 -5 287 -13 243 -13 _c
187 -13 142 2 109 33 _c
76 64 60 106 60 159 _c
}_e{60 220 80 266 122 298 _c
163 329 224 345 306 345 _c
432 345 _l
432 354 _l
432 395 418 427 391 450 _c
364 472 326 484 277 484 _c
245 484 215 480 185 472 _c
155 464 127 453 100 439 _c
100 522 _l
132 534 164 544 195 550 _c
226 556 256 560 286 560 _c
365 560 424 539 463 498 _c
502 457 522 395 522 312 _c
_cl}_e}_d
/b{{635 0 91 -13 580 760 _sc
487 273 _m
487 339 473 390 446 428 _c
418 466 381 485 334 485 _c
286 485 249 466 222 428 _c
194 390 181 339 181 273 _c
181 207 194 155 222 117 _c
249 79 286 61 334 61 _c
381 61 418 79 446 117 _c
473 155 487 207 487 273 _c
181 464 _m
199 496 223 520 252 536 _c
281 552 316 560 356 560 _c
422 560 476 533 518 481 _c
559 428 580 359 580 273 _c
}_e{580 187 559 117 518 65 _c
476 13 422 -13 356 -13 _c
316 -13 281 -5 252 10 _c
223 25 199 49 181 82 _c
181 0 _l
91 0 _l
91 760 _l
181 760 _l
181 464 _l
_cl}_e}_d
/d{{635 0 55 -13 544 760 _sc
454 464 _m
454 760 _l
544 760 _l
544 0 _l
454 0 _l
454 82 _l
435 49 411 25 382 10 _c
353 -5 319 -13 279 -13 _c
213 -13 159 13 117 65 _c
75 117 55 187 55 273 _c
55 359 75 428 117 481 _c
159 533 213 560 279 560 _c
319 560 353 552 382 536 _c
411 520 435 496 454 464 _c
148 273 _m
148 207 161 155 188 117 _c
215 79 253 61 301 61 _c
}_e{348 61 385 79 413 117 _c
440 155 454 207 454 273 _c
454 339 440 390 413 428 _c
385 466 348 485 301 485 _c
253 485 215 466 188 428 _c
161 390 148 339 148 273 _c
_cl}_e}_d
/e{{615 0 55 -13 562 560 _sc
562 296 _m
562 252 _l
149 252 _l
153 190 171 142 205 110 _c
238 78 284 62 344 62 _c
378 62 412 66 444 74 _c
476 82 509 95 541 113 _c
541 28 _l
509 14 476 3 442 -3 _c
408 -9 373 -13 339 -13 _c
251 -13 182 12 131 62 _c
80 112 55 181 55 268 _c
55 357 79 428 127 481 _c
175 533 241 560 323 560 _c
397 560 455 536 498 489 _c
}_e{540 441 562 377 562 296 _c
472 322 _m
471 371 457 410 431 440 _c
404 469 368 484 324 484 _c
274 484 234 469 204 441 _c
174 413 156 373 152 322 _c
472 322 _l
_cl}_e}_d
/f{352 0 23 0 371 760 _sc
371 760 _m
371 685 _l
285 685 _l
253 685 230 678 218 665 _c
205 652 199 629 199 595 _c
199 547 _l
347 547 _l
347 477 _l
199 477 _l
199 0 _l
109 0 _l
109 477 _l
23 477 _l
23 547 _l
109 547 _l
109 585 _l
109 645 123 690 151 718 _c
179 746 224 760 286 760 _c
371 760 _l
_cl}_d
/h{634 0 91 0 549 760 _sc
549 330 _m
549 0 _l
459 0 _l
459 327 _l
459 379 448 417 428 443 _c
408 469 378 482 338 482 _c
289 482 251 466 223 435 _c
195 404 181 362 181 309 _c
181 0 _l
91 0 _l
91 760 _l
181 760 _l
181 462 _l
202 494 227 519 257 535 _c
286 551 320 560 358 560 _c
420 560 468 540 500 501 _c
532 462 549 405 549 330 _c
_cl}_d
/i{278 0 94 0 184 760 _sc
94 547 _m
184 547 _l
184 0 _l
94 0 _l
94 547 _l
94 760 _m
184 760 _l
184 646 _l
94 646 _l
94 760 _l
_cl}_d
/l{278 0 94 0 184 760 _sc
94 760 _m
184 760 _l
184 0 _l
94 0 _l
94 760 _l
_cl}_d
/m{{974 0 91 0 889 560 _sc
520 442 _m
542 482 569 511 600 531 _c
631 550 668 560 711 560 _c
767 560 811 540 842 500 _c
873 460 889 403 889 330 _c
889 0 _l
799 0 _l
799 327 _l
799 379 789 418 771 444 _c
752 469 724 482 686 482 _c
639 482 602 466 575 435 _c
548 404 535 362 535 309 _c
535 0 _l
445 0 _l
445 327 _l
445 379 435 418 417 444 _c
398 469 369 482 331 482 _c
}_e{285 482 248 466 221 435 _c
194 404 181 362 181 309 _c
181 0 _l
91 0 _l
91 547 _l
181 547 _l
181 462 _l
201 495 226 520 255 536 _c
283 552 317 560 357 560 _c
397 560 430 550 458 530 _c
486 510 506 480 520 442 _c
_cl}_e}_d
/n{634 0 91 0 549 560 _sc
549 330 _m
549 0 _l
459 0 _l
459 327 _l
459 379 448 417 428 443 _c
408 469 378 482 338 482 _c
289 482 251 466 223 435 _c
195 404 181 362 181 309 _c
181 0 _l
91 0 _l
91 547 _l
181 547 _l
181 462 _l
202 494 227 519 257 535 _c
286 551 320 560 358 560 _c
420 560 468 540 500 501 _c
532 462 549 405 549 330 _c
_cl}_d
/o{612 0 55 -13 557 560 _sc
306 484 _m
258 484 220 465 192 427 _c
164 389 150 338 150 273 _c
150 207 163 156 191 118 _c
219 80 257 62 306 62 _c
354 62 392 80 420 118 _c
448 156 462 207 462 273 _c
462 337 448 389 420 427 _c
392 465 354 484 306 484 _c
306 560 _m
384 560 445 534 490 484 _c
534 433 557 363 557 273 _c
557 183 534 113 490 63 _c
445 12 384 -13 306 -13 _c
227 -13 165 12 121 63 _c
77 113 55 183 55 273 _c
55 363 77 433 121 484 _c
165 534 227 560 306 560 _c
_cl}_d
/p{{635 0 91 -207 580 560 _sc
181 82 _m
181 -207 _l
91 -207 _l
91 547 _l
181 547 _l
181 464 _l
199 496 223 520 252 536 _c
281 552 316 560 356 560 _c
422 560 476 533 518 481 _c
559 428 580 359 580 273 _c
580 187 559 117 518 65 _c
476 13 422 -13 356 -13 _c
316 -13 281 -5 252 10 _c
223 25 199 49 181 82 _c
487 273 _m
487 339 473 390 446 428 _c
418 466 381 485 334 485 _c
}_e{286 485 249 466 222 428 _c
194 390 181 339 181 273 _c
181 207 194 155 222 117 _c
249 79 286 61 334 61 _c
381 61 418 79 446 117 _c
473 155 487 207 487 273 _c
_cl}_e}_d
/r{411 0 91 0 411 560 _sc
411 463 _m
401 469 390 473 378 476 _c
366 478 353 480 339 480 _c
288 480 249 463 222 430 _c
194 397 181 350 181 288 _c
181 0 _l
91 0 _l
91 547 _l
181 547 _l
181 462 _l
199 495 224 520 254 536 _c
284 552 321 560 365 560 _c
371 560 378 559 386 559 _c
393 558 401 557 411 555 _c
411 463 _l
_cl}_d
/s{{521 0 54 -13 472 560 _sc
443 531 _m
443 446 _l
417 458 391 468 364 475 _c
336 481 308 485 279 485 _c
234 485 200 478 178 464 _c
156 450 145 430 145 403 _c
145 382 153 366 169 354 _c
185 342 217 330 265 320 _c
296 313 _l
360 299 405 279 432 255 _c
458 230 472 195 472 151 _c
472 100 452 60 412 31 _c
372 1 316 -13 246 -13 _c
216 -13 186 -10 154 -5 _c
}_e{122 0 89 8 54 20 _c
54 113 _l
87 95 120 82 152 74 _c
184 65 216 61 248 61 _c
290 61 323 68 346 82 _c
368 96 380 117 380 144 _c
380 168 371 187 355 200 _c
339 213 303 226 247 238 _c
216 245 _l
160 257 119 275 95 299 _c
70 323 58 356 58 399 _c
58 450 76 490 112 518 _c
148 546 200 560 268 560 _c
301 560 332 557 362 552 _c
391 547 418 540 443 531 _c
}_e{_cl}_e}_d
/t{392 0 27 0 368 702 _sc
183 702 _m
183 547 _l
368 547 _l
368 477 _l
183 477 _l
183 180 _l
183 135 189 106 201 94 _c
213 81 238 75 276 75 _c
368 75 _l
368 0 _l
276 0 _l
206 0 158 13 132 39 _c
106 65 93 112 93 180 _c
93 477 _l
27 477 _l
27 547 _l
93 547 _l
93 702 _l
183 702 _l
_cl}_d
/u{634 0 85 -13 543 560 _sc
85 216 _m
85 547 _l
175 547 _l
175 219 _l
175 167 185 129 205 103 _c
225 77 255 64 296 64 _c
344 64 383 79 411 110 _c
439 141 453 183 453 237 _c
453 547 _l
543 547 _l
543 0 _l
453 0 _l
453 84 _l
431 50 405 26 377 10 _c
348 -5 315 -13 277 -13 _c
214 -13 166 6 134 45 _c
101 83 85 140 85 216 _c
311 560 _m
311 560 _l
_cl}_d
/y{592 0 30 -207 562 547 _sc
322 -50 _m
296 -114 271 -157 247 -177 _c
223 -197 191 -207 151 -207 _c
79 -207 _l
79 -132 _l
132 -132 _l
156 -132 175 -126 189 -114 _c
203 -102 218 -75 235 -31 _c
251 9 _l
30 547 _l
125 547 _l
296 119 _l
467 547 _l
562 547 _l
322 -50 _l
_cl}_d
/z{525 0 43 0 482 547 _sc
55 547 _m
482 547 _l
482 465 _l
144 72 _l
482 72 _l
482 0 _l
43 0 _l
43 82 _l
381 475 _l
55 475 _l
55 547 _l
_cl}_d
end readonly def

/BuildGlyph
 {exch begin
 CharStrings exch
 2 copy known not{pop /.notdef}if
 true 3 1 roll get exec
 end}_d

/BuildChar {
 1 index /Encoding get exch get
 1 index /BuildGlyph get exec
}_d

FontName currentdict end definefont pop
end
%%EndProlog
mpldict begin
75.6 223.2 translate
460.8 345.6 0 0 clipbox
gsave
0 0 m
460.8 0 l
460.8 345.6 l
0 345.6 l
cl
1.000 setgray
fill
grestore
gsave
60.05 47.72 m
447.48 47.72 l
447.48 318.72 l
60.05 318.72 l
cl
1.000 setgray
fill
grestore
0.800 setlinewidth
1 setlinejoin
0 setlinecap
[] 0 setdash
0.000 setgray
gsave
/o {
gsave
newpath
translate
0.8 setlinewidth
1 setlinejoin
0 setlinecap
0 0 m
0 -3.5 l

gsave
0.000 setgray
fill
grestore
stroke
grestore
} bind def
77.6605 47.72 o
grestore
/DejaVuSans findfont
12.000 scalefont
setfont
gsave
73.840142 31.595000 translate
0.000000 rotate
0.000000 0.000000 m /one glyphshow
grestore
gsave
/o {
gsave
newpath
translate
0.8 setlinewidth
1 setlinejoin
0 setlinecap
0 0 m
0 -3.5 l

gsave
0.000 setgray
fill
grestore
stroke
grestore
} bind def
85.6652 47.72 o
grestore
gsave
81.844894 31.595000 translate
0.000000 rotate
0.000000 0.000000 m /two glyphshow
grestore
gsave
/o {
gsave
newpath
translate
0.8 setlinewidth
1 setlinejoin
0 setlinecap
0 0 m
0 -3.5 l

gsave
0.000 setgray
fill
grestore
stroke
grestore
} bind def
93.67 47.72 o
grestore
gsave
89.849646 31.595000 translate
0.000000 rotate
0.000000 0.000000 m /three glyphshow
grestore
gsave
/o {
gsave
newpath
translate
0.8 setlinewidth
1 setlinejoin
0 setlinecap
0 0 m
0 -3.5 l

gsave
0.000 setgray
fill
grestore
stroke
grestore
} bind def
101.675 47.72 o
grestore
gsave
97.854398 31.595000 translate
0.000000 rotate
0.000000 0.000000 m /four glyphshow
grestore
gsave
/o {
gsave
newpath
translate
0.8 setlinewidth
1 setlinejoin
0 setlinecap
0 0 m
0 -3.5 l

gsave
0.000 setgray
fill
grestore
stroke
grestore
} bind def
109.679 47.72 o
grestore
gsave
105.859150 31.595000 translate
0.000000 rotate
0.000000 0.000000 m /five glyphshow
grestore
gsave
/o {
gsave
newpath
translate
0.8 setlinewidth
1 setlinejoin
0 setlinecap
0 0 m
0 -3.5 l

gsave
0.000 setgray
fill
grestore
stroke
grestore
} bind def
117.684 47.72 o
grestore
gsave
113.863902 31.595000 translate
0.000000 rotate
0.000000 0.000000 m /six glyphshow
grestore
gsave
/o {
gsave
newpath
translate
0.8 setlinewidth
1 setlinejoin
0 setlinecap
0 0 m
0 -3.5 l

gsave
0.000 setgray
fill
grestore
stroke
grestore
} bind def
125.689 47.72 o
grestore
gsave
121.868654 31.595000 translate
0.000000 rotate
0.000000 0.000000 m /seven glyphshow
grestore
gsave
/o {
gsave
newpath
translate
0.8 setlinewidth
1 setlinejoin
0 setlinecap
0 0 m
0 -3.5 l

gsave
0.000 setgray
fill
grestore
stroke
grestore
} bind def
133.694 47.72 o
grestore
gsave
129.873407 31.595000 translate
0.000000 rotate
0.000000 0.000000 m /eight glyphshow
grestore
gsave
/o {
gsave
newpath
translate
0.8 setlinewidth
1 setlinejoin
0 setlinecap
0 0 m
0 -3.5 l

gsave
0.000 setgray
fill
grestore
stroke
grestore
} bind def
141.698 47.72 o
grestore
gsave
137.878159 31.595000 translate
0.000000 rotate
0.000000 0.000000 m /nine glyphshow
grestore
gsave
/o {
gsave
newpath
translate
0.8 setlinewidth
1 setlinejoin
0 setlinecap
0 0 m
0 -3.5 l

gsave
0.000 setgray
fill
grestore
stroke
grestore
} bind def
149.703 47.72 o
grestore
gsave
142.062598 31.595000 translate
0.000000 rotate
0.000000 0.000000 m /one glyphshow
7.634766 0.000000 m /zero glyphshow
grestore
gsave
/o {
gsave
newpath
translate
0.8 setlinewidth
1 setlinejoin
0 setlinecap
0 0 m
0 -3.5 l

gsave
0.000 setgray
fill
grestore
stroke
grestore
} bind def
157.708 47.72 o
grestore
gsave
150.067350 31.595000 translate
0.000000 rotate
0.000000 0.000000 m /one glyphshow
7.634766 0.000000 m /one glyphshow
grestore
gsave
/o {
gsave
newpath
translate
0.8 setlinewidth
1 setlinejoin
0 setlinecap
0 0 m
0 -3.5 l

gsave
0.000 setgray
fill
grestore
stroke
grestore
} bind def
165.713 47.72 o
grestore
gsave
158.072102 31.595000 translate
0.000000 rotate
0.000000 0.000000 m /one glyphshow
7.634766 0.000000 m /two glyphshow
grestore
gsave
/o {
gsave
newpath
translate
0.8 setlinewidth
1 setlinejoin
0 setlinecap
0 0 m
0 -3.5 l

gsave
0.000 setgray
fill
grestore
stroke
grestore
} bind def
173.717 47.72 o
grestore
gsave
166.076854 31.595000 translate
0.000000 rotate
0.000000 0.000000 m /one glyphshow
7.634766 0.000000 m /three glyphshow
grestore
gsave
/o {
gsave
newpath
translate
0.8 setlinewidth
1 setlinejoin
0 setlinecap
0 0 m
0 -3.5 l

gsave
0.000 setgray
fill
grestore
stroke
grestore
} bind def
181.722 47.72 o
grestore
gsave
174.081606 31.595000 translate
0.000000 rotate
0.000000 0.000000 m /one glyphshow
7.634766 0.000000 m /four glyphshow
grestore
gsave
/o {
gsave
newpath
translate
0.8 setlinewidth
1 setlinejoin
0 setlinecap
0 0 m
0 -3.5 l

gsave
0.000 setgray
fill
grestore
stroke
grestore
} bind def
189.727 47.72 o
grestore
gsave
182.086358 31.595000 translate
0.000000 rotate
0.000000 0.000000 m /one glyphshow
7.634766 0.000000 m /five glyphshow
grestore
gsave
/o {
gsave
newpath
translate
0.8 setlinewidth
1 setlinejoin
0 setlinecap
0 0 m
0 -3.5 l

gsave
0.000 setgray
fill
grestore
stroke
grestore
} bind def
197.732 47.72 o
grestore
gsave
190.091111 31.595000 translate
0.000000 rotate
0.000000 0.000000 m /one glyphshow
7.634766 0.000000 m /six glyphshow
grestore
gsave
/o {
gsave
newpath
translate
0.8 setlinewidth
1 setlinejoin
0 setlinecap
0 0 m
0 -3.5 l

gsave
0.000 setgray
fill
grestore
stroke
grestore
} bind def
205.736 47.72 o
grestore
gsave
198.095863 31.595000 translate
0.000000 rotate
0.000000 0.000000 m /one glyphshow
7.634766 0.000000 m /seven glyphshow
grestore
gsave
/o {
gsave
newpath
translate
0.8 setlinewidth
1 setlinejoin
0 setlinecap
0 0 m
0 -3.5 l

gsave
0.000 setgray
fill
grestore
stroke
grestore
} bind def
213.741 47.72 o
grestore
gsave
206.100615 31.595000 translate
0.000000 rotate
0.000000 0.000000 m /one glyphshow
7.634766 0.000000 m /eight glyphshow
grestore
gsave
/o {
gsave
newpath
translate
0.8 setlinewidth
1 setlinejoin
0 setlinecap
0 0 m
0 -3.5 l

gsave
0.000 setgray
fill
grestore
stroke
grestore
} bind def
221.746 47.72 o
grestore
gsave
214.105367 31.595000 translate
0.000000 rotate
0.000000 0.000000 m /one glyphshow
7.634766 0.000000 m /nine glyphshow
grestore
gsave
/o {
gsave
newpath
translate
0.8 setlinewidth
1 setlinejoin
0 setlinecap
0 0 m
0 -3.5 l

gsave
0.000 setgray
fill
grestore
stroke
grestore
} bind def
229.751 47.72 o
grestore
gsave
222.110119 31.595000 translate
0.000000 rotate
0.000000 0.000000 m /two glyphshow
7.634766 0.000000 m /zero glyphshow
grestore
gsave
/o {
gsave
newpath
translate
0.8 setlinewidth
1 setlinejoin
0 setlinecap
0 0 m
0 -3.5 l

gsave
0.000 setgray
fill
grestore
stroke
grestore
} bind def
237.755 47.72 o
grestore
gsave
230.114871 31.595000 translate
0.000000 rotate
0.000000 0.000000 m /two glyphshow
7.634766 0.000000 m /one glyphshow
grestore
gsave
/o {
gsave
newpath
translate
0.8 setlinewidth
1 setlinejoin
0 setlinecap
0 0 m
0 -3.5 l

gsave
0.000 setgray
fill
grestore
stroke
grestore
} bind def
245.76 47.72 o
grestore
gsave
238.119623 31.595000 translate
0.000000 rotate
0.000000 0.000000 m /two glyphshow
7.634766 0.000000 m /two glyphshow
grestore
gsave
/o {
gsave
newpath
translate
0.8 setlinewidth
1 setlinejoin
0 setlinecap
0 0 m
0 -3.5 l

gsave
0.000 setgray
fill
grestore
stroke
grestore
} bind def
253.765 47.72 o
grestore
gsave
246.124375 31.595000 translate
0.000000 rotate
0.000000 0.000000 m /two glyphshow
7.634766 0.000000 m /three glyphshow
grestore
gsave
/o {
gsave
newpath
translate
0.8 setlinewidth
1 setlinejoin
0 setlinecap
0 0 m
0 -3.5 l

gsave
0.000 setgray
fill
grestore
stroke
grestore
} bind def
261.77 47.72 o
grestore
gsave
254.129127 31.595000 translate
0.000000 rotate
0.000000 0.000000 m /two glyphshow
7.634766 0.000000 m /four glyphshow
grestore
gsave
/o {
gsave
newpath
translate
0.8 setlinewidth
1 setlinejoin
0 setlinecap
0 0 m
0 -3.5 l

gsave
0.000 setgray
fill
grestore
stroke
grestore
} bind def
269.775 47.72 o
grestore
gsave
262.133879 31.595000 translate
0.000000 rotate
0.000000 0.000000 m /two glyphshow
7.634766 0.000000 m /five glyphshow
grestore
gsave
/o {
gsave
newpath
translate
0.8 setlinewidth
1 setlinejoin
0 setlinecap
0 0 m
0 -3.5 l

gsave
0.000 setgray
fill
grestore
stroke
grestore
} bind def
277.779 47.72 o
grestore
gsave
270.138631 31.595000 translate
0.000000 rotate
0.000000 0.000000 m /two glyphshow
7.634766 0.000000 m /six glyphshow
grestore
gsave
/o {
gsave
newpath
translate
0.8 setlinewidth
1 setlinejoin
0 setlinecap
0 0 m
0 -3.5 l

gsave
0.000 setgray
fill
grestore
stroke
grestore
} bind def
285.784 47.72 o
grestore
gsave
278.143383 31.595000 translate
0.000000 rotate
0.000000 0.000000 m /two glyphshow
7.634766 0.000000 m /seven glyphshow
grestore
gsave
/o {
gsave
newpath
translate
0.8 setlinewidth
1 setlinejoin
0 setlinecap
0 0 m
0 -3.5 l

gsave
0.000 setgray
fill
grestore
stroke
grestore
} bind def
293.789 47.72 o
grestore
gsave
286.148135 31.595000 translate
0.000000 rotate
0.000000 0.000000 m /two glyphshow
7.634766 0.000000 m /eight glyphshow
grestore
gsave
/o {
gsave
newpath
translate
0.8 setlinewidth
1 setlinejoin
0 setlinecap
0 0 m
0 -3.5 l

gsave
0.000 setgray
fill
grestore
stroke
grestore
} bind def
301.794 47.72 o
grestore
gsave
294.152887 31.595000 translate
0.000000 rotate
0.000000 0.000000 m /two glyphshow
7.634766 0.000000 m /nine glyphshow
grestore
gsave
/o {
gsave
newpath
translate
0.8 setlinewidth
1 setlinejoin
0 setlinecap
0 0 m
0 -3.5 l

gsave
0.000 setgray
fill
grestore
stroke
grestore
} bind def
309.798 47.72 o
grestore
gsave
302.157639 31.595000 translate
0.000000 rotate
0.000000 0.000000 m /three glyphshow
7.634766 0.000000 m /zero glyphshow
grestore
gsave
/o {
gsave
newpath
translate
0.8 setlinewidth
1 setlinejoin
0 setlinecap
0 0 m
0 -3.5 l

gsave
0.000 setgray
fill
grestore
stroke
grestore
} bind def
317.803 47.72 o
grestore
gsave
310.162392 31.595000 translate
0.000000 rotate
0.000000 0.000000 m /three glyphshow
7.634766 0.000000 m /one glyphshow
grestore
gsave
/o {
gsave
newpath
translate
0.8 setlinewidth
1 setlinejoin
0 setlinecap
0 0 m
0 -3.5 l

gsave
0.000 setgray
fill
grestore
stroke
grestore
} bind def
325.808 47.72 o
grestore
gsave
318.167144 31.595000 translate
0.000000 rotate
0.000000 0.000000 m /three glyphshow
7.634766 0.000000 m /two glyphshow
grestore
gsave
/o {
gsave
newpath
translate
0.8 setlinewidth
1 setlinejoin
0 setlinecap
0 0 m
0 -3.5 l

gsave
0.000 setgray
fill
grestore
stroke
grestore
} bind def
333.813 47.72 o
grestore
gsave
326.171896 31.595000 translate
0.000000 rotate
0.000000 0.000000 m /three glyphshow
7.634766 0.000000 m /three glyphshow
grestore
gsave
/o {
gsave
newpath
translate
0.8 setlinewidth
1 setlinejoin
0 setlinecap
0 0 m
0 -3.5 l

gsave
0.000 setgray
fill
grestore
stroke
grestore
} bind def
341.817 47.72 o
grestore
gsave
334.176648 31.595000 translate
0.000000 rotate
0.000000 0.000000 m /three glyphshow
7.634766 0.000000 m /four glyphshow
grestore
gsave
/o {
gsave
newpath
translate
0.8 setlinewidth
1 setlinejoin
0 setlinecap
0 0 m
0 -3.5 l

gsave
0.000 setgray
fill
grestore
stroke
grestore
} bind def
349.822 47.72 o
grestore
gsave
342.181400 31.595000 translate
0.000000 rotate
0.000000 0.000000 m /three glyphshow
7.634766 0.000000 m /five glyphshow
grestore
gsave
/o {
gsave
newpath
translate
0.8 setlinewidth
1 setlinejoin
0 setlinecap
0 0 m
0 -3.5 l

gsave
0.000 setgray
fill
grestore
stroke
grestore
} bind def
365.832 47.72 o
grestore
gsave
358.190904 31.595000 translate
0.000000 rotate
0.000000 0.000000 m /three glyphshow
7.634766 0.000000 m /seven glyphshow
grestore
gsave
/o {
gsave
newpath
translate
0.8 setlinewidth
1 setlinejoin
0 setlinecap
0 0 m
0 -3.5 l

gsave
0.000 setgray
fill
grestore
stroke
grestore
} bind def
373.836 47.72 o
grestore
gsave
366.195656 31.595000 translate
0.000000 rotate
0.000000 0.000000 m /three glyphshow
7.634766 0.000000 m /eight glyphshow
grestore
gsave
/o {
gsave
newpath
translate
0.8 setlinewidth
1 setlinejoin
0 setlinecap
0 0 m
0 -3.5 l

gsave
0.000 setgray
fill
grestore
stroke
grestore
} bind def
381.841 47.72 o
grestore
gsave
374.200408 31.595000 translate
0.000000 rotate
0.000000 0.000000 m /three glyphshow
7.634766 0.000000 m /nine glyphshow
grestore
gsave
/o {
gsave
newpath
translate
0.8 setlinewidth
1 setlinejoin
0 setlinecap
0 0 m
0 -3.5 l

gsave
0.000 setgray
fill
grestore
stroke
grestore
} bind def
389.846 47.72 o
grestore
gsave
382.205160 31.595000 translate
0.000000 rotate
0.000000 0.000000 m /four glyphshow
7.634766 0.000000 m /zero glyphshow
grestore
gsave
/o {
gsave
newpath
translate
0.8 setlinewidth
1 setlinejoin
0 setlinecap
0 0 m
0 -3.5 l

gsave
0.000 setgray
fill
grestore
stroke
grestore
} bind def
397.851 47.72 o
grestore
gsave
390.209912 31.595000 translate
0.000000 rotate
0.000000 0.000000 m /four glyphshow
7.634766 0.000000 m /one glyphshow
grestore
gsave
/o {
gsave
newpath
translate
0.8 setlinewidth
1 setlinejoin
0 setlinecap
0 0 m
0 -3.5 l

gsave
0.000 setgray
fill
grestore
stroke
grestore
} bind def
405.855 47.72 o
grestore
gsave
398.214664 31.595000 translate
0.000000 rotate
0.000000 0.000000 m /four glyphshow
7.634766 0.000000 m /two glyphshow
grestore
gsave
/o {
gsave
newpath
translate
0.8 setlinewidth
1 setlinejoin
0 setlinecap
0 0 m
0 -3.5 l

gsave
0.000 setgray
fill
grestore
stroke
grestore
} bind def
413.86 47.72 o
grestore
gsave
406.219416 31.595000 translate
0.000000 rotate
0.000000 0.000000 m /four glyphshow
7.634766 0.000000 m /three glyphshow
grestore
gsave
/o {
gsave
newpath
translate
0.8 setlinewidth
1 setlinejoin
0 setlinecap
0 0 m
0 -3.5 l

gsave
0.000 setgray
fill
grestore
stroke
grestore
} bind def
421.865 47.72 o
grestore
gsave
414.224168 31.595000 translate
0.000000 rotate
0.000000 0.000000 m /four glyphshow
7.634766 0.000000 m /four glyphshow
grestore
gsave
/o {
gsave
newpath
translate
0.8 setlinewidth
1 setlinejoin
0 setlinecap
0 0 m
0 -3.5 l

gsave
0.000 setgray
fill
grestore
stroke
grestore
} bind def
429.87 47.72 o
grestore
gsave
422.228920 31.595000 translate
0.000000 rotate
0.000000 0.000000 m /four glyphshow
7.634766 0.000000 m /five glyphshow
grestore
gsave
192.952500 15.970000 translate
0.000000 rotate
0.000000 0.000000 m /M glyphshow
10.353516 0.000000 m /e glyphshow
17.736328 0.000000 m /a glyphshow
25.089844 0.000000 m /s glyphshow
31.341797 0.000000 m /u glyphshow
38.947266 0.000000 m /r glyphshow
43.880859 0.000000 m /e glyphshow
51.263672 0.000000 m /m glyphshow
62.953125 0.000000 m /e glyphshow
70.335938 0.000000 m /n glyphshow
77.941406 0.000000 m /t glyphshow
82.646484 0.000000 m /space glyphshow
86.460938 0.000000 m /r glyphshow
91.394531 0.000000 m /o glyphshow
98.736328 0.000000 m /u glyphshow
106.341797 0.000000 m /n glyphshow
113.947266 0.000000 m /d glyphshow
grestore
gsave
/o {
gsave
newpath
translate
0.8 setlinewidth
1 setlinejoin
0 setlinecap
0 0 m
-3.5 0 l

gsave
0.000 setgray
fill
grestore
stroke
grestore
} bind def
60.05 58.5356 o
grestore
/DejaVuSans findfont
10.000 scalefont
setfont
gsave
46.690625 54.738750 translate
0.000000 rotate
0.000000 0.000000 m /zero glyphshow
grestore
gsave
/o {
gsave
newpath
translate
0.8 setlinewidth
1 setlinejoin
0 setlinecap
0 0 m
-3.5 0 l

gsave
0.000 setgray
fill
grestore
stroke
grestore
} bind def
60.05 114.186 o
grestore
gsave
27.612500 110.388996 translate
0.000000 rotate
0.000000 0.000000 m /one glyphshow
6.362305 0.000000 m /zero glyphshow
12.724609 0.000000 m /zero glyphshow
19.086914 0.000000 m /zero glyphshow
grestore
gsave
/o {
gsave
newpath
translate
0.8 setlinewidth
1 setlinejoin
0 setlinecap
0 0 m
-3.5 0 l

gsave
0.000 setgray
fill
grestore
stroke
grestore
} bind def
60.05 169.836 o
grestore
gsave
27.612500 166.039241 translate
0.000000 rotate
0.000000 0.000000 m /two glyphshow
6.362305 0.000000 m /zero glyphshow
12.724609 0.000000 m /zero glyphshow
19.086914 0.000000 m /zero glyphshow
grestore
gsave
/o {
gsave
newpath
translate
0.8 setlinewidth
1 setlinejoin
0 setlinecap
0 0 m
-3.5 0 l

gsave
0.000 setgray
fill
grestore
stroke
grestore
} bind def
60.05 225.486 o
grestore
gsave
27.612500 221.689486 translate
0.000000 rotate
0.000000 0.000000 m /three glyphshow
6.362305 0.000000 m /zero glyphshow
12.724609 0.000000 m /zero glyphshow
19.086914 0.000000 m /zero glyphshow
grestore
gsave
/o {
gsave
newpath
translate
0.8 setlinewidth
1 setlinejoin
0 setlinecap
0 0 m
-3.5 0 l

gsave
0.000 setgray
fill
grestore
stroke
grestore
} bind def
60.05 281.137 o
grestore
gsave
27.612500 277.339732 translate
0.000000 rotate
0.000000 0.000000 m /four glyphshow
6.362305 0.000000 m /zero glyphshow
12.724609 0.000000 m /zero glyphshow
19.086914 0.000000 m /zero glyphshow
grestore
/DejaVuSans findfont
12.000 scalefont
setfont
gsave
21.112500 135.243437 translate
90.000000 rotate
0.000000 0.000000 m /S glyphshow
7.617188 0.000000 m /i glyphshow
10.951172 0.000000 m /z glyphshow
17.250000 0.000000 m /e glyphshow
24.632812 0.000000 m /space glyphshow
28.447266 0.000000 m /o glyphshow
35.789062 0.000000 m /f glyphshow
40.013672 0.000000 m /space glyphshow
43.828125 0.000000 m /n glyphshow
51.433594 0.000000 m /o glyphshow
58.775391 0.000000 m /d glyphshow
66.392578 0.000000 m /e glyphshow
73.775391 0.000000 m /space glyphshow
77.589844 0.000000 m /s glyphshow
83.841797 0.000000 m /e glyphshow
91.224609 0.000000 m /t glyphshow
grestore
1.500 setlinewidth
2 setlinecap
1.000 0.000 0.000 setrgbcolor
gsave
387.4 271 60.05 47.72 clipbox
77.660455 263.161578 m
85.665207 261.937272 l
93.669959 263.217228 l
101.674711 263.439829 l
109.679463 263.495479 l
117.684215 260.879917 l
125.688967 263.161578 l
133.693719 263.384178 l
141.698471 263.217228 l
149.703223 262.938977 l
157.707975 262.215523 l
165.712727 262.215523 l
173.717479 262.104223 l
181.722231 262.159873 l
189.726983 261.770321 l
197.731736 261.825972 l
205.736488 261.992922 l
213.74124 262.159873 l
221.745992 261.714671 l
229.750744 261.937272 l
237.755496 261.49207 l
245.760248 261.43642 l
253.765 261.269469 l
261.769752 261.269469 l
269.774504 260.657316 l
277.779256 261.102518 l
285.784008 260.824267 l
293.78876 261.046868 l
301.793512 261.43642 l
309.798264 258.820858 l
317.803017 261.54772 l
325.807769 261.102518 l
333.812521 260.935568 l
341.817273 260.712967 l
349.822025 259.878213 l
365.831529 259.878213 l
373.836281 259.544312 l
381.841033 259.321711 l
389.845785 259.15476 l
397.850537 258.820858 l
405.855289 258.486957 l
413.860041 259.599962 l
421.864793 306.401818 l
429.869545 305.400114 l
stroke
grestore
0 setlinecap
[5.6 2.4] 0 setdash
gsave
387.4 271 60.05 47.72 clipbox
77.660455 124.815067 m
85.665207 124.425516 l
93.669959 124.926368 l
101.674711 125.204619 l
109.679463 125.37157 l
117.684215 125.148969 l
125.688967 125.093319 l
133.693719 125.093319 l
141.698471 125.037668 l
149.703223 124.926368 l
157.707975 124.982018 l
165.712727 124.870718 l
173.717479 124.815067 l
181.722231 124.703767 l
189.726983 124.592466 l
197.731736 124.592466 l
205.736488 124.815067 l
213.74124 124.926368 l
221.745992 125.31592 l
229.750744 125.093319 l
237.755496 124.870718 l
245.760248 124.592466 l
253.765 124.425516 l
261.769752 124.759417 l
269.774504 124.425516 l
277.779256 124.481166 l
285.784008 124.536816 l
293.78876 124.703767 l
301.793512 124.926368 l
309.798264 124.314215 l
317.803017 124.815067 l
325.807769 124.703767 l
333.812521 124.592466 l
341.817273 124.703767 l
349.822025 124.425516 l
365.831529 124.147265 l
373.836281 124.202915 l
381.841033 124.035964 l
389.845785 123.869013 l
397.850537 123.757713 l
405.855289 123.423811 l
413.860041 123.980314 l
421.864793 143.012698 l
429.869545 142.845747 l
stroke
grestore
[9.6 2.4 1.6 2.4] 0 setdash
gsave
387.4 271 60.05 47.72 clipbox
77.660455 196.882135 m
85.665207 196.047382 l
93.669959 196.826485 l
101.674711 196.770835 l
109.679463 196.659534 l
117.684215 194.266574 l
125.688967 196.603884 l
133.693719 196.826485 l
141.698471 196.715185 l
149.703223 196.548234 l
157.707975 195.76913 l
165.712727 195.880431 l
173.717479 195.824781 l
181.722231 195.991731 l
189.726983 195.71348 l
197.731736 195.76913 l
205.736488 195.71348 l
213.74124 195.76913 l
221.745992 194.934377 l
229.750744 195.379579 l
237.755496 195.156978 l
245.760248 195.379579 l
253.765 195.379579 l
261.769752 195.045677 l
269.774504 194.767426 l
277.779256 195.156978 l
285.784008 194.823076 l
293.78876 194.878726 l
301.793512 195.045677 l
309.798264 193.042268 l
317.803017 195.268278 l
325.807769 194.934377 l
333.812521 194.878726 l
341.817273 194.544825 l
349.822025 193.988322 l
365.831529 194.266574 l
373.836281 193.877022 l
381.841033 193.821372 l
389.845785 193.821372 l
397.850537 193.598771 l
405.855289 193.598771 l
413.860041 194.155273 l
421.864793 221.924746 l
429.869545 221.089992 l
stroke
grestore
[2.2 2.2] 0 setdash
gsave
387.4 271 60.05 47.72 clipbox
77.660455 63.098945 m
85.665207 62.987645 l
93.669959 63.098945 l
101.674711 63.098945 l
109.679463 63.098945 l
117.684215 63.043295 l
125.688967 63.098945 l
133.693719 63.098945 l
141.698471 63.098945 l
149.703223 63.098945 l
157.707975 63.043295 l
165.712727 63.098945 l
173.717479 63.154596 l
181.722231 63.098945 l
189.726983 63.043295 l
197.731736 63.043295 l
205.736488 63.043295 l
213.74124 63.098945 l
221.745992 63.043295 l
229.750744 63.043295 l
237.755496 63.043295 l
245.760248 63.098945 l
253.765 63.043295 l
261.769752 62.987645 l
269.774504 62.987645 l
277.779256 63.043295 l
285.784008 62.987645 l
293.78876 62.987645 l
301.793512 63.043295 l
309.798264 63.098945 l
317.803017 63.043295 l
325.807769 63.043295 l
333.812521 63.043295 l
341.817273 63.043295 l
349.822025 63.043295 l
365.831529 62.987645 l
373.836281 63.043295 l
381.841033 62.987645 l
389.845785 63.043295 l
397.850537 62.987645 l
405.855289 63.043295 l
413.860041 63.043295 l
421.864793 63.766748 l
429.869545 63.822399 l
stroke
grestore
2 setlinecap
[] 0 setdash
0.000 0.500 0.000 setrgbcolor
gsave
387.4 271 60.05 47.72 clipbox
77.660455 63.098945 m
85.665207 62.987645 l
93.669959 63.098945 l
101.674711 63.098945 l
109.679463 63.098945 l
117.684215 63.043295 l
125.688967 63.098945 l
133.693719 63.098945 l
141.698471 63.098945 l
149.703223 63.098945 l
157.707975 63.043295 l
165.712727 63.098945 l
173.717479 63.154596 l
181.722231 63.098945 l
189.726983 63.043295 l
197.731736 63.043295 l
205.736488 63.043295 l
213.74124 63.098945 l
221.745992 63.043295 l
229.750744 63.043295 l
237.755496 63.043295 l
245.760248 63.098945 l
253.765 63.043295 l
261.769752 62.987645 l
269.774504 62.987645 l
277.779256 63.043295 l
285.784008 62.987645 l
293.78876 62.987645 l
301.793512 63.043295 l
309.798264 63.098945 l
317.803017 63.043295 l
325.807769 63.043295 l
333.812521 63.043295 l
341.817273 63.043295 l
349.822025 63.043295 l
365.831529 62.987645 l
373.836281 63.043295 l
381.841033 62.987645 l
389.845785 63.043295 l
397.850537 62.987645 l
405.855289 63.043295 l
413.860041 63.043295 l
421.864793 63.766748 l
429.869545 63.822399 l
stroke
grestore
0 setlinecap
[5.6 2.4] 0 setdash
gsave
387.4 271 60.05 47.72 clipbox
77.660455 64.2676 m
85.665207 64.21195 l
93.669959 64.2676 l
101.674711 64.2676 l
109.679463 64.2676 l
117.684215 64.1563 l
125.688967 64.2676 l
133.693719 64.2676 l
141.698471 64.2676 l
149.703223 64.21195 l
157.707975 64.2676 l
165.712727 64.21195 l
173.717479 64.2676 l
181.722231 64.2676 l
189.726983 64.2676 l
197.731736 64.2676 l
205.736488 64.2676 l
213.74124 64.2676 l
221.745992 64.2676 l
229.750744 64.2676 l
237.755496 64.21195 l
245.760248 64.1563 l
253.765 64.21195 l
261.769752 64.21195 l
269.774504 64.1563 l
277.779256 64.1563 l
285.784008 64.1563 l
293.78876 64.1563 l
301.793512 64.1563 l
309.798264 64.1563 l
317.803017 64.1563 l
325.807769 64.1563 l
333.812521 64.1563 l
341.817273 64.1563 l
349.822025 64.1563 l
365.831529 64.1563 l
373.836281 64.10065 l
381.841033 64.1563 l
389.845785 64.1563 l
397.850537 64.1563 l
405.855289 64.21195 l
413.860041 64.21195 l
421.864793 64.712802 l
429.869545 64.657152 l
stroke
grestore
[9.6 2.4 1.6 2.4] 0 setdash
gsave
387.4 271 60.05 47.72 clipbox
77.660455 63.098945 m
85.665207 62.987645 l
93.669959 63.098945 l
101.674711 63.098945 l
109.679463 63.098945 l
117.684215 63.043295 l
125.688967 63.098945 l
133.693719 63.098945 l
141.698471 63.098945 l
149.703223 63.098945 l
157.707975 63.043295 l
165.712727 63.098945 l
173.717479 63.154596 l
181.722231 63.098945 l
189.726983 63.043295 l
197.731736 63.043295 l
205.736488 63.043295 l
213.74124 63.098945 l
221.745992 63.043295 l
229.750744 63.043295 l
237.755496 63.043295 l
245.760248 63.098945 l
253.765 63.043295 l
261.769752 62.987645 l
269.774504 62.987645 l
277.779256 63.043295 l
285.784008 62.987645 l
293.78876 62.987645 l
301.793512 63.043295 l
309.798264 63.098945 l
317.803017 63.043295 l
325.807769 63.043295 l
333.812521 63.043295 l
341.817273 63.043295 l
349.822025 63.043295 l
365.831529 62.987645 l
373.836281 63.043295 l
381.841033 62.987645 l
389.845785 63.043295 l
397.850537 62.987645 l
405.855289 63.043295 l
413.860041 63.043295 l
421.864793 63.766748 l
429.869545 63.822399 l
stroke
grestore
[2.2 2.2] 0 setdash
gsave
387.4 271 60.05 47.72 clipbox
77.660455 64.2676 m
85.665207 64.21195 l
93.669959 64.2676 l
101.674711 64.2676 l
109.679463 64.2676 l
117.684215 64.1563 l
125.688967 64.2676 l
133.693719 64.2676 l
141.698471 64.2676 l
149.703223 64.21195 l
157.707975 64.2676 l
165.712727 64.21195 l
173.717479 64.2676 l
181.722231 64.2676 l
189.726983 64.2676 l
197.731736 64.2676 l
205.736488 64.2676 l
213.74124 64.2676 l
221.745992 64.2676 l
229.750744 64.2676 l
237.755496 64.21195 l
245.760248 64.1563 l
253.765 64.21195 l
261.769752 64.21195 l
269.774504 64.1563 l
277.779256 64.1563 l
285.784008 64.1563 l
293.78876 64.1563 l
301.793512 64.1563 l
309.798264 64.1563 l
317.803017 64.1563 l
325.807769 64.1563 l
333.812521 64.1563 l
341.817273 64.1563 l
349.822025 64.1563 l
365.831529 64.1563 l
373.836281 64.10065 l
381.841033 64.1563 l
389.845785 64.1563 l
397.850537 64.1563 l
405.855289 64.21195 l
413.860041 64.21195 l
421.864793 64.712802 l
429.869545 64.657152 l
stroke
grestore
2 setlinecap
[] 0 setdash
0.000 0.000 1.000 setrgbcolor
gsave
387.4 271 60.05 47.72 clipbox
77.660455 77.512359 m
85.665207 77.568009 l
93.669959 77.512359 l
101.674711 77.345408 l
109.679463 77.289758 l
117.684215 77.345408 l
125.688967 77.345408 l
133.693719 77.289758 l
141.698471 77.345408 l
149.703223 77.289758 l
157.707975 77.345408 l
165.712727 77.345408 l
173.717479 77.345408 l
181.722231 77.289758 l
189.726983 77.345408 l
197.731736 77.401058 l
205.736488 77.178457 l
213.74124 77.345408 l
221.745992 77.401058 l
229.750744 77.345408 l
237.755496 77.345408 l
245.760248 77.234108 l
253.765 77.178457 l
261.769752 77.345408 l
269.774504 77.289758 l
277.779256 77.345408 l
285.784008 77.401058 l
293.78876 77.401058 l
301.793512 77.401058 l
309.798264 77.456709 l
317.803017 77.512359 l
325.807769 77.122807 l
333.812521 77.122807 l
341.817273 77.234108 l
349.822025 77.234108 l
365.831529 77.234108 l
373.836281 77.234108 l
381.841033 77.234108 l
389.845785 77.011507 l
397.850537 77.234108 l
405.855289 77.234108 l
413.860041 77.178457 l
421.864793 77.234108 l
429.869545 77.178457 l
stroke
grestore
0 setlinecap
[5.6 2.4] 0 setdash
gsave
387.4 271 60.05 47.72 clipbox
77.660455 65.770157 m
85.665207 65.770157 l
93.669959 65.770157 l
101.674711 65.770157 l
109.679463 65.770157 l
117.684215 65.770157 l
125.688967 65.714507 l
133.693719 65.770157 l
141.698471 65.714507 l
149.703223 65.714507 l
157.707975 65.714507 l
165.712727 65.714507 l
173.717479 65.714507 l
181.722231 65.714507 l
189.726983 65.714507 l
197.731736 65.714507 l
205.736488 65.714507 l
213.74124 65.658857 l
221.745992 65.714507 l
229.750744 65.714507 l
237.755496 65.714507 l
245.760248 65.714507 l
253.765 65.714507 l
261.769752 65.714507 l
269.774504 65.714507 l
277.779256 65.714507 l
285.784008 65.714507 l
293.78876 65.714507 l
301.793512 65.714507 l
309.798264 65.714507 l
317.803017 65.714507 l
325.807769 65.714507 l
333.812521 65.714507 l
341.817273 65.714507 l
349.822025 65.714507 l
365.831529 65.714507 l
373.836281 65.714507 l
381.841033 65.714507 l
389.845785 65.714507 l
397.850537 65.714507 l
405.855289 65.714507 l
413.860041 65.658857 l
421.864793 65.714507 l
429.869545 65.714507 l
stroke
grestore
[9.6 2.4 1.6 2.4] 0 setdash
gsave
387.4 271 60.05 47.72 clipbox
77.660455 65.770157 m
85.665207 65.770157 l
93.669959 65.770157 l
101.674711 65.770157 l
109.679463 65.770157 l
117.684215 65.770157 l
125.688967 65.714507 l
133.693719 65.770157 l
141.698471 65.714507 l
149.703223 65.714507 l
157.707975 65.714507 l
165.712727 65.714507 l
173.717479 65.714507 l
181.722231 65.714507 l
189.726983 65.714507 l
197.731736 65.714507 l
205.736488 65.714507 l
213.74124 65.658857 l
221.745992 65.714507 l
229.750744 65.714507 l
237.755496 65.714507 l
245.760248 65.714507 l
253.765 65.714507 l
261.769752 65.714507 l
269.774504 65.714507 l
277.779256 65.714507 l
285.784008 65.714507 l
293.78876 65.714507 l
301.793512 65.714507 l
309.798264 65.714507 l
317.803017 65.714507 l
325.807769 65.714507 l
333.812521 65.714507 l
341.817273 65.714507 l
349.822025 65.714507 l
365.831529 65.714507 l
373.836281 65.714507 l
381.841033 65.714507 l
389.845785 65.714507 l
397.850537 65.714507 l
405.855289 65.714507 l
413.860041 65.658857 l
421.864793 65.714507 l
429.869545 65.714507 l
stroke
grestore
[2.2 2.2] 0 setdash
gsave
387.4 271 60.05 47.72 clipbox
77.660455 63.766748 m
85.665207 63.711098 l
93.669959 63.711098 l
101.674711 63.599798 l
109.679463 63.655448 l
117.684215 63.544147 l
125.688967 63.655448 l
133.693719 63.544147 l
141.698471 63.599798 l
149.703223 63.711098 l
157.707975 63.655448 l
165.712727 63.599798 l
173.717479 63.655448 l
181.722231 63.599798 l
189.726983 63.599798 l
197.731736 63.655448 l
205.736488 63.488497 l
213.74124 63.599798 l
221.745992 63.544147 l
229.750744 63.711098 l
237.755496 63.544147 l
245.760248 63.488497 l
253.765 63.544147 l
261.769752 60.149482 l
269.774504 60.149482 l
277.779256 60.149482 l
285.784008 60.093832 l
293.78876 60.149482 l
301.793512 60.149482 l
309.798264 60.205133 l
317.803017 60.149482 l
325.807769 60.149482 l
333.812521 60.149482 l
341.817273 60.149482 l
349.822025 60.093832 l
365.831529 60.093832 l
373.836281 60.093832 l
381.841033 60.093832 l
389.845785 60.093832 l
397.850537 60.093832 l
405.855289 60.093832 l
413.860041 60.038182 l
421.864793 60.038182 l
429.869545 60.038182 l
stroke
grestore
2 setlinecap
[] 0 setdash
0.000 setgray
gsave
387.4 271 60.05 47.72 clipbox
77.660455 63.544147 m
85.665207 63.488497 l
93.669959 63.488497 l
101.674711 63.377197 l
109.679463 63.432847 l
117.684215 63.321546 l
125.688967 63.432847 l
133.693719 63.321546 l
141.698471 63.377197 l
149.703223 63.488497 l
157.707975 63.432847 l
165.712727 63.377197 l
173.717479 63.432847 l
181.722231 63.377197 l
189.726983 63.377197 l
197.731736 63.432847 l
205.736488 63.265896 l
213.74124 63.377197 l
221.745992 63.321546 l
229.750744 63.488497 l
237.755496 63.321546 l
245.760248 63.265896 l
253.765 63.321546 l
261.769752 60.149482 l
269.774504 60.149482 l
277.779256 60.149482 l
285.784008 60.093832 l
293.78876 60.149482 l
301.793512 60.149482 l
309.798264 60.205133 l
317.803017 60.149482 l
325.807769 60.149482 l
333.812521 60.149482 l
341.817273 60.149482 l
349.822025 60.093832 l
365.831529 60.093832 l
373.836281 60.093832 l
381.841033 60.093832 l
389.845785 60.093832 l
397.850537 60.093832 l
405.855289 60.093832 l
413.860041 60.038182 l
421.864793 60.038182 l
429.869545 60.038182 l
stroke
grestore
0 setlinecap
[5.6 2.4] 0 setdash
gsave
387.4 271 60.05 47.72 clipbox
77.660455 63.544147 m
85.665207 63.488497 l
93.669959 63.488497 l
101.674711 63.377197 l
109.679463 63.432847 l
117.684215 63.321546 l
125.688967 63.432847 l
133.693719 63.321546 l
141.698471 63.377197 l
149.703223 63.488497 l
157.707975 63.432847 l
165.712727 63.377197 l
173.717479 63.432847 l
181.722231 63.377197 l
189.726983 63.377197 l
197.731736 63.432847 l
205.736488 63.265896 l
213.74124 63.377197 l
221.745992 63.321546 l
229.750744 63.488497 l
237.755496 63.321546 l
245.760248 63.265896 l
253.765 63.321546 l
261.769752 60.149482 l
269.774504 60.149482 l
277.779256 60.149482 l
285.784008 60.093832 l
293.78876 60.149482 l
301.793512 60.149482 l
309.798264 60.205133 l
317.803017 60.149482 l
325.807769 60.149482 l
333.812521 60.149482 l
341.817273 60.149482 l
349.822025 60.093832 l
365.831529 60.093832 l
373.836281 60.093832 l
381.841033 60.093832 l
389.845785 60.093832 l
397.850537 60.093832 l
405.855289 60.093832 l
413.860041 60.038182 l
421.864793 60.038182 l
429.869545 60.038182 l
stroke
grestore
0.800 setlinewidth
0 setlinejoin
2 setlinecap
[] 0 setdash
gsave
60.05 47.72 m
60.05 318.72 l
stroke
grestore
gsave
447.48 47.72 m
447.48 318.72 l
stroke
grestore
gsave
60.05 47.72 m
447.48 47.72 l
stroke
grestore
gsave
60.05 318.72 m
447.48 318.72 l
stroke
grestore
gsave
179.827500 324.720000 translate
0.000000 rotate
0.000000 0.000000 m /S glyphshow
7.617188 0.000000 m /i glyphshow
10.951172 0.000000 m /z glyphshow
17.250000 0.000000 m /e glyphshow
24.632812 0.000000 m /space glyphshow
28.447266 0.000000 m /o glyphshow
35.789062 0.000000 m /f glyphshow
40.013672 0.000000 m /space glyphshow
43.828125 0.000000 m /n glyphshow
51.433594 0.000000 m /o glyphshow
58.775391 0.000000 m /d glyphshow
66.392578 0.000000 m /e glyphshow
73.775391 0.000000 m /space glyphshow
77.589844 0.000000 m /s glyphshow
83.841797 0.000000 m /e glyphshow
91.224609 0.000000 m /t glyphshow
95.929688 0.000000 m /s glyphshow
102.181641 0.000000 m /space glyphshow
105.996094 0.000000 m /i glyphshow
109.330078 0.000000 m /n glyphshow
116.935547 0.000000 m /space glyphshow
120.750000 0.000000 m /t glyphshow
125.455078 0.000000 m /i glyphshow
128.789062 0.000000 m /m glyphshow
140.478516 0.000000 m /e glyphshow
grestore
1.000 setlinewidth
0 setlinecap
0.300 setgray
gsave
302.933125 50.72 m
442.48 50.72 l
443.813333 50.72 444.48 51.386667 444.48 52.72 c
444.48 258.25125 l
444.48 259.584583 443.813333 260.25125 442.48 260.25125 c
302.933125 260.25125 l
301.599792 260.25125 300.933125 259.584583 300.933125 258.25125 c
300.933125 52.72 l
300.933125 51.386667 301.599792 50.72 302.933125 50.72 c
cl
gsave
fill
grestore
stroke
grestore
0.800 setgray
gsave
300.933125 52.72 m
440.48 52.72 l
441.813333 52.72 442.48 53.386667 442.48 54.72 c
442.48 260.25125 l
442.48 261.584583 441.813333 262.25125 440.48 262.25125 c
300.933125 262.25125 l
299.599792 262.25125 298.933125 261.584583 298.933125 260.25125 c
298.933125 54.72 l
298.933125 53.386667 299.599792 52.72 300.933125 52.72 c
cl
gsave
1.000 setgray
fill
grestore
stroke
grestore
1.500 setlinewidth
1 setlinejoin
2 setlinecap
[] 0 setdash
1.000 0.000 0.000 setrgbcolor
gsave
302.933125 254.1575 m
322.933125 254.1575 l
stroke
grestore
0.000 setgray
/DejaVuSans findfont
10.000 scalefont
setfont
gsave
330.933125 250.657500 translate
0.000000 rotate
0.000000 0.000000 m /T glyphshow
6.092773 0.000000 m /o glyphshow
12.210938 0.000000 m /t glyphshow
16.131836 0.000000 m /a glyphshow
22.259766 0.000000 m /l glyphshow
25.038086 0.000000 m /space glyphshow
28.216797 0.000000 m /R glyphshow
35.165039 0.000000 m /A glyphshow
grestore
0 setlinecap
[5.6 2.4] 0 setdash
1.000 0.000 0.000 setrgbcolor
gsave
302.933125 239.485625 m
322.933125 239.485625 l
stroke
grestore
0.000 setgray
gsave
330.933125 235.985625 translate
0.000000 rotate
0.000000 0.000000 m /T glyphshow
6.092773 0.000000 m /o glyphshow
12.210938 0.000000 m /t glyphshow
16.131836 0.000000 m /a glyphshow
22.259766 0.000000 m /l glyphshow
25.038086 0.000000 m /space glyphshow
28.216797 0.000000 m /E glyphshow
34.535156 0.000000 m /y glyphshow
40.453125 0.000000 m /e glyphshow
46.605469 0.000000 m /b glyphshow
52.953125 0.000000 m /a glyphshow
59.081055 0.000000 m /l glyphshow
61.859375 0.000000 m /l glyphshow
64.637695 0.000000 m /space glyphshow
67.816406 0.000000 m /R glyphshow
74.764648 0.000000 m /A glyphshow
grestore
[9.6 2.4 1.6 2.4] 0 setdash
1.000 0.000 0.000 setrgbcolor
gsave
302.933125 224.81375 m
322.933125 224.81375 l
stroke
grestore
0.000 setgray
gsave
330.933125 221.313750 translate
0.000000 rotate
0.000000 0.000000 m /T glyphshow
6.092773 0.000000 m /o glyphshow
12.210938 0.000000 m /t glyphshow
16.131836 0.000000 m /a glyphshow
22.259766 0.000000 m /l glyphshow
25.038086 0.000000 m /space glyphshow
28.216797 0.000000 m /O glyphshow
36.087891 0.000000 m /t glyphshow
40.008789 0.000000 m /h glyphshow
46.346680 0.000000 m /e glyphshow
52.499023 0.000000 m /r glyphshow
56.610352 0.000000 m /space glyphshow
59.789062 0.000000 m /R glyphshow
66.737305 0.000000 m /A glyphshow
grestore
[2.2 2.2] 0 setdash
1.000 0.000 0.000 setrgbcolor
gsave
302.933125 210.141875 m
322.933125 210.141875 l
stroke
grestore
0.000 setgray
gsave
330.933125 206.641875 translate
0.000000 rotate
0.000000 0.000000 m /S glyphshow
6.347656 0.000000 m /a glyphshow
12.475586 0.000000 m /m glyphshow
22.216797 0.000000 m /p glyphshow
28.564453 0.000000 m /l glyphshow
31.342773 0.000000 m /e glyphshow
37.495117 0.000000 m /d glyphshow
43.842773 0.000000 m /space glyphshow
47.021484 0.000000 m /R glyphshow
53.969727 0.000000 m /A glyphshow
60.810547 0.000000 m /E glyphshow
grestore
2 setlinecap
[] 0 setdash
0.000 0.500 0.000 setrgbcolor
gsave
302.933125 195.47 m
322.933125 195.47 l
stroke
grestore
0.000 setgray
gsave
330.933125 191.970000 translate
0.000000 rotate
0.000000 0.000000 m /S glyphshow
6.347656 0.000000 m /a glyphshow
12.475586 0.000000 m /m glyphshow
22.216797 0.000000 m /p glyphshow
28.564453 0.000000 m /l glyphshow
31.342773 0.000000 m /e glyphshow
37.495117 0.000000 m /d glyphshow
43.842773 0.000000 m /space glyphshow
47.021484 0.000000 m /R glyphshow
53.969727 0.000000 m /A glyphshow
60.810547 0.000000 m /R glyphshow
67.758789 0.000000 m /underscore glyphshow
72.758789 0.000000 m /E glyphshow
79.077148 0.000000 m /Y glyphshow
85.185547 0.000000 m /E glyphshow
grestore
0 setlinecap
[5.6 2.4] 0 setdash
0.000 0.500 0.000 setrgbcolor
gsave
302.933125 180.516875 m
322.933125 180.516875 l
stroke
grestore
0.000 setgray
gsave
330.933125 177.016875 translate
0.000000 rotate
0.000000 0.000000 m /S glyphshow
6.347656 0.000000 m /a glyphshow
12.475586 0.000000 m /m glyphshow
22.216797 0.000000 m /p glyphshow
28.564453 0.000000 m /l glyphshow
31.342773 0.000000 m /e glyphshow
37.495117 0.000000 m /d glyphshow
43.842773 0.000000 m /space glyphshow
47.021484 0.000000 m /R glyphshow
53.969727 0.000000 m /A glyphshow
60.810547 0.000000 m /R glyphshow
67.758789 0.000000 m /underscore glyphshow
72.758789 0.000000 m /O glyphshow
80.629883 0.000000 m /T glyphshow
86.738281 0.000000 m /H glyphshow
94.257812 0.000000 m /E glyphshow
100.576172 0.000000 m /R glyphshow
grestore
[9.6 2.4 1.6 2.4] 0 setdash
0.000 0.500 0.000 setrgbcolor
gsave
302.933125 165.56375 m
322.933125 165.56375 l
stroke
grestore
0.000 setgray
gsave
330.933125 162.063750 translate
0.000000 rotate
0.000000 0.000000 m /F glyphshow
5.751953 0.000000 m /e glyphshow
11.904297 0.000000 m /a glyphshow
18.032227 0.000000 m /s glyphshow
23.242188 0.000000 m /i glyphshow
26.020508 0.000000 m /b glyphshow
32.368164 0.000000 m /l glyphshow
35.146484 0.000000 m /e glyphshow
41.298828 0.000000 m /space glyphshow
44.477539 0.000000 m /R glyphshow
51.425781 0.000000 m /A glyphshow
58.266602 0.000000 m /R glyphshow
65.214844 0.000000 m /underscore glyphshow
70.214844 0.000000 m /E glyphshow
76.533203 0.000000 m /Y glyphshow
82.641602 0.000000 m /E glyphshow
grestore
[2.2 2.2] 0 setdash
0.000 0.500 0.000 setrgbcolor
gsave
302.933125 150.610625 m
322.933125 150.610625 l
stroke
grestore
0.000 setgray
gsave
330.933125 147.110625 translate
0.000000 rotate
0.000000 0.000000 m /F glyphshow
5.751953 0.000000 m /e glyphshow
11.904297 0.000000 m /a glyphshow
18.032227 0.000000 m /s glyphshow
23.242188 0.000000 m /i glyphshow
26.020508 0.000000 m /b glyphshow
32.368164 0.000000 m /l glyphshow
35.146484 0.000000 m /e glyphshow
41.298828 0.000000 m /space glyphshow
44.477539 0.000000 m /R glyphshow
51.425781 0.000000 m /A glyphshow
58.266602 0.000000 m /R glyphshow
65.214844 0.000000 m /underscore glyphshow
70.214844 0.000000 m /O glyphshow
78.085938 0.000000 m /T glyphshow
84.194336 0.000000 m /H glyphshow
91.713867 0.000000 m /E glyphshow
98.032227 0.000000 m /R glyphshow
grestore
2 setlinecap
[] 0 setdash
0.000 0.000 1.000 setrgbcolor
gsave
302.933125 135.6575 m
322.933125 135.6575 l
stroke
grestore
0.000 setgray
gsave
330.933125 132.157500 translate
0.000000 rotate
0.000000 0.000000 m /T glyphshow
6.092773 0.000000 m /o glyphshow
12.210938 0.000000 m /t glyphshow
16.131836 0.000000 m /a glyphshow
22.259766 0.000000 m /l glyphshow
25.038086 0.000000 m /space glyphshow
28.216797 0.000000 m /C glyphshow
35.199219 0.000000 m /O glyphshow
43.070312 0.000000 m /R glyphshow
grestore
0 setlinecap
[5.6 2.4] 0 setdash
0.000 0.000 1.000 setrgbcolor
gsave
302.933125 120.985625 m
322.933125 120.985625 l
stroke
grestore
0.000 setgray
gsave
330.933125 117.485625 translate
0.000000 rotate
0.000000 0.000000 m /S glyphshow
6.347656 0.000000 m /a glyphshow
12.475586 0.000000 m /m glyphshow
22.216797 0.000000 m /p glyphshow
28.564453 0.000000 m /l glyphshow
31.342773 0.000000 m /e glyphshow
37.495117 0.000000 m /d glyphshow
43.842773 0.000000 m /space glyphshow
47.021484 0.000000 m /C glyphshow
54.003906 0.000000 m /O glyphshow
61.875000 0.000000 m /R glyphshow
grestore
[9.6 2.4 1.6 2.4] 0 setdash
0.000 0.000 1.000 setrgbcolor
gsave
302.933125 106.31375 m
322.933125 106.31375 l
stroke
grestore
0.000 setgray
gsave
330.933125 102.813750 translate
0.000000 rotate
0.000000 0.000000 m /F glyphshow
5.751953 0.000000 m /e glyphshow
11.904297 0.000000 m /a glyphshow
18.032227 0.000000 m /s glyphshow
23.242188 0.000000 m /i glyphshow
26.020508 0.000000 m /b glyphshow
32.368164 0.000000 m /l glyphshow
35.146484 0.000000 m /e glyphshow
41.298828 0.000000 m /space glyphshow
44.477539 0.000000 m /C glyphshow
51.459961 0.000000 m /O glyphshow
59.331055 0.000000 m /R glyphshow
grestore
[2.2 2.2] 0 setdash
0.000 0.000 1.000 setrgbcolor
gsave
302.933125 91.641875 m
322.933125 91.641875 l
stroke
grestore
0.000 setgray
gsave
330.933125 88.141875 translate
0.000000 rotate
0.000000 0.000000 m /T glyphshow
6.092773 0.000000 m /o glyphshow
12.210938 0.000000 m /t glyphshow
16.131836 0.000000 m /a glyphshow
22.259766 0.000000 m /l glyphshow
25.038086 0.000000 m /space glyphshow
28.216797 0.000000 m /P glyphshow
34.247070 0.000000 m /L glyphshow
39.818359 0.000000 m /R glyphshow
grestore
2 setlinecap
[] 0 setdash
gsave
302.933125 76.97 m
322.933125 76.97 l
stroke
grestore
gsave
330.933125 73.470000 translate
0.000000 rotate
0.000000 0.000000 m /S glyphshow
6.347656 0.000000 m /a glyphshow
12.475586 0.000000 m /m glyphshow
22.216797 0.000000 m /p glyphshow
28.564453 0.000000 m /l glyphshow
31.342773 0.000000 m /e glyphshow
37.495117 0.000000 m /d glyphshow
43.842773 0.000000 m /space glyphshow
47.021484 0.000000 m /P glyphshow
53.051758 0.000000 m /L glyphshow
58.623047 0.000000 m /R glyphshow
grestore
0 setlinecap
[5.6 2.4] 0 setdash
gsave
302.933125 62.298125 m
322.933125 62.298125 l
stroke
grestore
gsave
330.933125 58.798125 translate
0.000000 rotate
0.000000 0.000000 m /F glyphshow
5.751953 0.000000 m /e glyphshow
11.904297 0.000000 m /a glyphshow
18.032227 0.000000 m /s glyphshow
23.242188 0.000000 m /i glyphshow
26.020508 0.000000 m /b glyphshow
32.368164 0.000000 m /l glyphshow
35.146484 0.000000 m /e glyphshow
41.298828 0.000000 m /space glyphshow
44.477539 0.000000 m /P glyphshow
50.507812 0.000000 m /L glyphshow
56.079102 0.000000 m /R glyphshow
grestore

end
showpage
